{
    "Controls": [
        {
            "Name": "Row1",
            "Control": 92,
            "Controls": [
                {
                    "Name": "DocumentRegisterID",
                    "Title": "Loại sổ",
                    "Control": 6,
                    "PreventDefault": true,
                    "Request": {
                        "method": "get",
                        "endpoint": "edoc/DOC/Common/GetDocumentRegisterByStoreId?documentStoreId=2",
                        "payload": {},
                        "cache": {
                            "enable": true,
                            "maxAge": 60
                        }
                    },
                    "props": {
                        "optionLabel": "Name",
                        "optionValue": "Code"
                    },
                    "Validations": {
                        "Required": true
                    },
                    "ExtField": "Notation",
                    "ExtFieldName": "DocumentRegisterNotation"
                },
                {
                    "Name": "DocumentTypeID",
                    "Title": "Loại văn bản",
                    "Control": 6,
                    "Request": {
                        "method": "get",
                        "endpoint": "edoc/doc/Common/GetDocumentType",
                        "cache": {
                            "enable": true,
                            "maxAge": 60
                        }
                    },
                    "props": {
                        "optionLabel": "Name",
                        "optionValue": "Code",
                        "disabled": true
                    },
                    "ExtField": "Name",
                    "ExtFieldName": "DocumentTypeName"
                }
            ]
        },
        {
            "Name": "Row2",
            "Control": 92,
            "Controls": [
                {
                    "Name": "DocNo",
                    "Title": "Số đi",
                    "Control": 10,
                    "props": {
                        "tabIndex": -1,
                        "disabled": true
                    }
                },
                {
                    "Name": "DocLabel",
                    "Title": "Số ký hiệu",
                    "Control": 10,
                    "props": {
                        "disabled": true
                    }
                }
            ]
        },
        {
            "Name": "Row3",
            "Control": 92,
            "Controls": [
                {
                    "Name": "DocDate",
                    "Title": "Ngày văn bản",
                    "Validations": {
                        "Required": true
                    },
                    "Control": 1,
                    "props": {
                        "dateFormat": "dd/mm/yy",
                        "mask": "99/99/9999",
                        "showOnFocus": false,
                        "showIcon": true,
                        "showButtonBar": true,
                        "monthNavigator": true,
                        "yearNavigator": true,
                        "yearRange": "2000:2030",
                        "disabled": true
                    }
                },
                {
                    "Name": "IssueDate",
                    "Title": "Ngày phát hành",
                    "Validations": {
                        "Formula": {
                            "Expression": "<%=(IssueDate && (new Date(IssueDate)).withoutTime() < (new Date(DocDate)).withoutTime())%>",
                            "ErrorMessage": "Ngày phát hành không được trước Ngày tạo."
                        }
                    },
                    "Control": 1,
                    "props": {
                        "dateFormat": "dd/mm/yy",
                        "mask": "99/99/9999",
                        "showOnFocus": false,
                        "showIcon": true,
                        "showButtonBar": true,
                        "monthNavigator": true,
                        "yearNavigator": true,
                        "yearRange": "2000:2030",
                        "disabled": true
                    }
                }
            ]
        },
        {
            "Name": "Row4",
            "Control": 92,
            "Controls": [
                {
                    "Name": "OrgEditor",
                    "Title": "Đơn vị soạn thảo",
                    "Control": 10
                },
                {
                    "Name": "Editor",
                    "Title": "Cán bộ soạn thảo",
                    "Control": 10,
                    "props": {
                        "disabled": true
                    }
                }
            ]
        },
        {
            "Name": "Row5",
            "Control": 92,
            "Controls": [
                {
                    "Name": "SignedBy",
                    "Title": "Người ký",
                    "Control": 95,
                    "Request": {
                        "method": "get",
                        "endpoint": "edoc/DOC/Common/GetSigner?category=Signer&inputType=11",
                        "cache": {
                            "enable": true,
                            "maxAge": 60
                        }
                    },
                    "ValueTemplate": "<%=Name%>",
                    "ExtValueTemplate": "<%=Extent1%>",
                    "ExtFieldName": "SignedRole",
                    "props": {
                        "multiple": false,
                        "forceSelection": false,
                        "autoHighlight": true,
                        "delay": 10
                    },
                    "Validations": {
                        "Required": true
                    }
                },
                {
                    "Name": "Row4.6",
                    "Control": 92,
                    "Controls": [
                        {
                            "Name": "SignedRole",
                            "Control": 10,
                            "Title": "Chức vụ",
                            "props": {
                                "disabled": true
                            }
                        }
                    ]
                }
            ]
        },
        {
            "Name": "Row6",
            "Control": 92,
            "Controls": [
                {
                    "Name": "Brief",
                    "Title": "Trích yếu",
                    "Validations": {
                        "Required": true
                    },
                    "Control": 11,
                    "props": {
                        "rows": 3,
                        "autoResize": true,
                        "disabled": true
                    }
                }
            ]
        },
        {
            "Name": "Row7",
            "Control": 92,
            "Controls": [
                {
                    "Name": "Props.InReceiver",
                    "Title": "Nơi nhận trong ngành",
                    "Control": 94,
                    "LabelClass": "p-md-2",
                    "ControlClass": "p-md-4",
                    "Request": {
                        "method": "get",
                        "endpoint": "edoc/ctl/Sender/GetSender?types=0,1",
                        "payload": {},
                        "cache": {
                            "enable": true,
                            "maxAge": 60
                        }
                    },
                    "IDTemplate": "0:#ID;#6:#Type",
                    "ValueTemplate": "<%=ID%>:#<%=OrgCode%>:#<%=AreaCode%>:#<%=eCode%>:#na:#<%=Code%>:#<%=Type%>",
                    "LabelTemplate": "<%=Name%>",
                    "ExtLabelFieldName": "Props.InReceiverName",
                    "ItemTemplate": "<%=InputCode%>|<%=Name%>",
                    "SelectedItemTemplate": "<%=Code%>",
                    "Large": false,
                    "props": {
                        "field": "InputCode|%Name",
                        "multiple": true,
                        "forceSelection": true,
                        "autoHighlight": true
                    },
                    "Validations": {
                        "Formula": {
                            "Expression": "<%=((!Props.InReceiver && !Props.OutReceiver) || (Props.InReceiver === '' && Props.OutReceiver === ''))%>",
                            "ErrorMessage": "Nơi nhận không được để trống!"
                        }
                    },
                    "ActionButton": {
                        "Name": "SelectInReceiver",
                        "Control": 25,
                        "props": {
                            "icon": "pi pi-ellipsis-h p-pl-2 p-pr-2",
                            "tabIndex": -1
                        }
                    }
                }
            ]
        },
        {
            "Name": "Row7.0",
            "Control": 92,
            "Controls": [
                {
                    "Name": "Props.OutReceiver",
                    "Title": "Nơi nhận ngoài ngành",
                    "Control": 94,
                    "LabelClass": "p-md-2",
                    "ControlClass": "p-md-4",
                    "Request": {
                        "method": "get",
                        "endpoint": "edoc/ctl/Sender/GetSender?types=2",
                        "payload": {},
                        "cache": {
                            "enable": true,
                            "maxAge": 60
                        }
                    },
                    "IDTemplate": "0:#ID;#6:#Type",
                    "ValueTemplate": "<%=ID%>:#<%=OrgCode%>:#<%=AreaCode%>:#<%=eCode%>:#na:#<%=Code%>:#<%=Type%>",
                    "LabelTemplate": "<%=Name%>",
                    "ExtLabelFieldName": "Props.OutReceiverName",
                    "ItemTemplate": "<%=InputCode%>|<%=Name%>",
                    "SelectedItemTemplate": "<%=Code%>",
                    "Large": false,
                    "props": {
                        "field": "InputCode|%Name",
                        "multiple": true,
                        "forceSelection": true,
                        "autoHighlight": true
                    },
                    "Validations": {
                        "Formula": {
                            "Expression": "<%=((!Props.InReceiver && !Props.OutReceiver) || (Props.InReceiver === '' && Props.OutReceiver === ''))%>",
                            "ErrorMessage": "Nơi nhận không được để trống!"
                        }
                    },
                    "ActionButton": {
                        "Name": "SelectOutReceiver",
                        "Control": 25,
                        "props": {
                            "icon": "pi pi-ellipsis-h p-pl-2 p-pr-2",
                            "tabIndex": -1
                        }
                    }
                }
            ]
        },
        {
            "Name": "Row8",
            "Control": 92,
            "Controls": [
                {
                    "Name": "Props.Reporter",
                    "Title": "LĐ Tổng cục để báo cáo",
                    "Control": 94,
                    "Request": {
                        "method": "get",
                        "endpoint": "edoc/DOC/Common/GetSigner?category=Leader",
                        "cache": {
                            "enable": true,
                            "maxAge": 60
                        }
                    },
                    "ValueTemplate": "<%=ID%>:#<%=Code%>:#<%=Name%>:#<%=Extent2%>",
                    "LabelTemplate": "<%=Name%>",
                    "ItemTemplate": "<%=Code%>|<%=Name%>",
                    "SelectedItemTemplate": "<%=Code%>",
                    "props": {
                        "field": "Code",
                        "multiple": false,
                        "forceSelection": true,
                        "autoHighlight": true
                    }
                }
            ]
        },
        {
            "Name": "Row9",
            "Control": 92,
            "Controls": [
                {
                    "Name": "Notes",
                    "Title": "Ghi chú",
                    "Control": 11,
                    "props": {
                        "rows": 3,
                        "autoResize": true,
                        "disabled": true
                    }
                }
            ]
        },
        {
            "Name": "Row10",
            "Control": 92,
            "Controls": [
                {
                    "Name": "UrgentLevel",
                    "Title": "Độ khẩn",
                    "Control": 6,
                    "Request": {
                        "method": "get",
                        "endpoint": "edoc/ctl/Catalog/GetByCategory/UrgentLevel",
                        "cache": {
                            "enable": true,
                            "maxAge": 60
                        }
                    },
                    "props": {
                        "optionLabel": "Name",
                        "optionValue": "Code",
                        "disabled": true
                    }
                },
                {
                    "Name": "DueDate",
                    "Title": "Hạn trả lời",
                    "Validations": {
                        "Formula": {
                            "Expression": "<%=(DueDate && (new Date(DueDate)).withoutTime() < (new Date(DocDate)).withoutTime())%>",
                            "ErrorMessage": "Hạn xử lý không được trước Ngày tạo."
                        }
                    },
                    "Control": 1,
                    "props": {
                        "dateFormat": "dd/mm/yy",
                        "showOnFocus": false,
                        "mask": "99/99/9999",
                        "showIcon": true,
                        "showButtonBar": true,
                        "monthNavigator": true,
                        "yearNavigator": true,
                        "yearRange": "2000:2030",
                        "tabIndex": -1,
                        "disabled": true
                    }
                }
            ]
        },
        {
            "Name": "Row16a",
            "Control": 92,
            "Controls": [
                {
                    "Name": "ContentStreams",
                    "Title": "Tệp nội dung",
                    "Control": 57,
                    "DocumentStoreId": 2,
                    "ContentType": "101",
                    "AllowSign": true,
                    "MultiValue": true,
                    "Large": true,
                    "ReadOnly": true,
                    "props": {
                        "maxFileSize": 1048576,
                        "auto": true,
                        "customUpload": true
                    }
                }
            ]
        },
        {
            "Name": "Row17.1",
            "Control": 92,
            "Controls": [
                {
                    "Name": "Link_ContentStreams",
                    "Title": "Tệp phát hành kèm vb đi",
                    "Control": 57,
                    "DocumentStoreId": 2,
                    "ContentType": "102",
                    "MultiValue": true,
                    "Large": true,
                    "ReadOnly": true,
                    "props": {
                        "maxFileSize": 1048576,
                        "auto": true,
                        "customUpload": true
                    }
                }
            ]
        },
        {
            "Name": "Row13",
            "Control": 92,
            "Controls": [
                {
                    "Name": "Copies",
                    "Title": "Số ĐV nhận bản giấy",
                    "Control": 10,
                    "Validations": {
                        "Regular": {
                            "Expression": "^\\d+$",
                            "ErrorMessage": "Nhập đúng định dạng số"
                        },
                        "Max": 999
                    },
                    "props": {
                        "keyfilter": "pint",
                        "disabled": true
                    }
                },
                {
                    "Name": "eCopies",
                    "Title": "Số ĐV nhận bản điện tử",
                    "Control": 10,
                    "Validations": {
                        "Regular": {
                            "Expression": "^\\d+$",
                            "ErrorMessage": "Nhập đúng định dạng số"
                        },
                        "Max": 999
                    },
                    "props": {
                        "keyfilter": "pint",
                        "disabled": true
                    }
                }
            ]
        },
        {
            "Name": "Row14",
            "Control": 92,
            "Controls": [
                {
                    "Name": "Props.NumOfReleases",
                    "Title": "SL bản phát hành",
                    "Control": 10,
                    "Validations": {
                        "Regular": {
                            "Expression": "^\\d+$",
                            "ErrorMessage": "Nhập đúng định dạng số"
                        },
                        "Max": 999
                    },
                    "props": {
                        "keyfilter": "pint",
                        "disabled": true
                    }
                },
                {
                    "Name": "WithPaper",
                    "Title": "Văn bản điện tử có kèm bản giấy",
                    "HideLabel": true,
                    "Control": 3,
                    "ControlClass": "p-col-12 p-md-4",
                    "props": {
                        "disabled": true
                    }
                },
                {
                    "Name": "Props.IsPublished",
                    "Title": "Đã phát hành",
                    "Control": 3,
                    "ControlClass": "p-col-12 p-md-2",
                    "HideLabel": true,
                    "props": {
                        "disabled": true
                    }
                }
            ]
        },
        {
            "Name": "Row15",
            "Control": 92,
            "Controls": [
                {
                    "Name": "Language",
                    "Title": "Ngôn ngữ",
                    "Control": 6,
                    "Request": {
                        "method": "get",
                        "endpoint": "edoc/ctl/Catalog/GetByCategory/Language",
                        "payload": {},
                        "cache": {
                            "enable": true,
                            "maxAge": 60
                        }
                    },
                    "props": {
                        "optionLabel": "Name",
                        "optionValue": "Name",
                        "disabled": true,
                        "tabIndex": -1
                    },
                    "Validations": {
                        "MaxLength": 30
                    }
                },
                {
                    "Name": "Pages",
                    "Title": "Số trang",
                    "DefaultValue": "1",
                    "Control": 10,
                    "Validations": {
                        "Regular": {
                            "Expression": "^\\d+$",
                            "ErrorMessage": "Nhập đúng định dạng số"
                        },
                        "Max": 999
                    },
                    "props": {
                        "keyfilter": "pint",
                        "disabled": true
                    }
                }
            ]
        },
        {
            "Name": "Row16q",
            "Control": 92,
            "Controls": [
                {
                    "Name": "BussinessDocType",
                    "Title": "Loại nghiệp vụ",
                    "Control": 6,
                    "Request": {
                        "method": "get",
                        "endpoint": "edoc/dms/Document/GetBussinessDocType",
                        "cache": {
                            "enable": true,
                            "maxAge": 60
                        }
                    },
                    "props": {
                        "optionLabel": "Name",
                        "optionValue": "ID",
                        "disabled": true
                    }
                },
                {
                    "Name": "Props.IsPublic",
                    "Title": "Công báo",
                    "HideLabel": true,
                    "Control": 3,
                    "ControlClass": "p-col-12 p-md-4"
                }
            ]
        },
        {
            "Name": "Row17",
            "Control": 92,
            "Controls": [
                {
                    "Name": "table_empty7",
                    "Control": 93,
                    "Title": "Văn bản thay thế/ thu hồi",
                    "ControlClass": "p-col-12 p-md-2"
                },
                {
                    "Name": "TableReplaceDocument",
                    "Control": 27,
                    "props": {
                        "className": "p-col-12 p-md-10",
                        "selectionMode": "single",
                        "emptyMessage": "Không có dữ liệu"
                    },
                    "Columns": [
                        {
                            "selectionMode": "multiple",
                            "style": {
                                "width": "5%"
                            }
                        },
                        {
                            "field": "DocLabel",
                            "header": "Số Ký Hiệu"
                        },
                        {
                            "field": "DocumentStoreID",
                            "header": "Loại văn bản",
                            "style": {
                                "width": "15%"
                            }
                        },
                        {
                            "field": "Brief",
                            "header": "Trích yếu"
                        },
                        {
                            "field": "SignedBy",
                            "header": "Người ký"
                        }
                    ]
                }
            ]
        }
    ],
    "Buttons": [
        {
            "Control": 25,
            "Name": "CancelPublic",
            "props": {
                "label": "Hủy công báo",
                "className": "p-mt-2"
            }
        },
        {
            "Control": 25,
            "Name": "Recover",
            "props": {
                "label": "Lấy lại",
                "className": "p-mt-2"
            }
        },
        {
            "Control": 25,
            "Name": "CreateNewCardJob",
            "props": {
                "label": "Tạo PGV",
                "className": "p-mt-2"
            }
        },
        {
            "Name": "Profile",
            "Control": 25,
            "CausesValidation": true,
            "props": {
                "label": "Hồ sơ"
            }
        },
        {
            "Name": "History",
            "Control": 25,
            "CausesValidation": true,
            "props": {
                "label": "Lịch sử"
            }
        },
        {
            "Name": "TransferStorage",
            "Control": 25,
            "props": {
                "label": "Chuyển lưu trữ",
                "className": "p-mr-2 p-mt-2"
            }
        },
        {
            "Name": "Close",
            "Control": 25,
            "CausesValidation": true,
            "props": {
                "label": "Đóng"
            }
        }
    ]
}