{
    "Controls": [
        {
            "Control": 92,
            "Name": "Row1",
            "Controls": [
                {
                    "Name": "InputGroup",
                    "Title": "Lần trình trước",
                    "Control": 8,
                    "InputName": "NumberSubmission",
                    "Controls": [
                        {
                            "Name": "NumberSubmission",
                            "Control": 6,
                            "Request": {
                                "method": "get",
                                "endpoint": "",
                                "payload": {}
                            },
                            "Large": false,
                            "props": {
                                "optionLabel": "Name",
                                "optionValue": "ID"
                            }
                        },
                        {
                            "Name": "bttXemToTrinh",
                            "Control": 25,
                            "props": {
                                "icon": "pi pi-search p-pl-3 p-pr-3"
                            }
                        }
                    ]
                },
                {
                    "Name": "ReporterCode",
                    "Title": "Trình Lãnh đạo",
                    "Control": 6,
                    "ExtField": "Name",
                    "ExtFieldName": "ReporterName",
                    "Request": {
                        "method": "get",
                        "endpoint": "edoc/ctl/Catalog/GetByCategory/Leader",
                        "cache": {
                            "enable": true,
                            "maxAge": 60
                        }
                    },
                    "props": {
                        "optionLabel": "Name",
                        "optionValue": "Extent2",
                        "filter": true,
                        "disabled": true
                    }
                }
            ]
        },
        {
            "Name": "Row2",
            "Control": 92,
            "Controls": [
                {
                    "Name": "DocumentRegisterName",
                    "Title": "Loại tờ trình",
                    "Control": 10,
                    "Validations": {
                        "Required": true
                    },
                    "props": {
                        "disabled": true
                    }
                },
                {
                    "Name": "DocLabel",
                    "Control": 10,
                    "Title": "Số tờ trình",
                    "props": {
                        "disabled": true
                    },
                    "Validations": {
                        "MaxLength": 30
                    }
                }
            ]
        },
        {
            "Name": "Row3",
            "Control": 92,
            "Controls": [
                {
                    "Name": "Brief",
                    "Control": 11,
                    "Title": "Trích yếu",
                    "props": {
                        "disabled": true
                    },
                    "Validations": {
                        "MaxLength": 500
                    }
                }
            ]
        },
        {
            "Name": "Row4",
            "Control": 92,
            "Controls": [
                {
                    "Name": "Props.CoordinatedRecipientsCodeTemp",
                    "Title": "Trình xin ý kiến",
                    "Control": 94,
                    "Request": {
                        "method": "get",
                        "endpoint": "",
                        "payload": {}
                    },
                    "ValueTemplate": "<%=ID%>:#<%=Name%>:#<%=Code%>:#<%=eID%>:<%=OrgCode%>:<%=Code%>:<%=eCode%>:<%=IsWorkQueue%>:<%=ActivityID%>",
                    "Large": false,
                    "LabelTemplate": "<%=Name%>",
                    "ItemTemplate": "<%=InputCode%>|<%=Name%>",
                    "SelectedItemTemplate": "<%=InputCode%>",
                    "props": {
                        "field": "InputCode|%Name",
                        "multiple": true,
                        "forceSelection": true,
                        "autoHighlight": true
                    }
                }
            ]
        },
        {
            "Name": "GroupDetailInfo",
            "Control": 91,
            "Expanded": true,
            "Title": "Thông tin chi tiết",
            "Controls": [
                {
                    "Name": "Row5",
                    "Control": 92,
                    "Controls": [
                        {
                            "Name": "Created",
                            "Title": "Ngày tạo",
                            "Control": 1,
                            "props": {
                                "dateFormat": "dd/mm/yy",
                                "mask": "99/99/9999",
                                "showIcon": true,
                                "showButtonBar": true,
                                "monthNavigator": true,
                                "yearNavigator": true,
                                "yearRange": "2000:2030",
                                "disabled": true
                            }
                        },
                        {
                            "Title": "Người soạn thảo",
                            "Name": "Editor",
                            "Control": 10,
                            "props": {
                                "disabled": true
                            },
                            "Validations": {
                                "MaxLength": 50
                            }
                        }
                    ]
                },
                {
                    "Name": "Row6",
                    "Control": 92,
                    "Controls": [
                        {
                            "Name": "OrgEditor",
                            "Control": 10,
                            "Title": "Đơn vị trình",
                            "props": {
                                "disabled": true
                            },
                            "Validations": {
                                "MaxLength": 200
                            }
                        },
                        {
                            "Name": "SignedBy",
                            "Title": "Người ký",
                            "Control": 95,
                            "Request": {
                                "method": "get",
                                "endpoint": "edoc/DOC/Common/GetSigner?category=Signer&inputType=11",
                                "cache": {
                                    "enable": true,
                                    "maxAge": 60
                                }
                            },
                            "ValueTemplate": "<%=Name%>",
                            "props": {
                                "disabled": true,
                                "multiple": false,
                                "forceSelection": false,
                                "autoHighlight": true,
                                "delay": 10
                            },
                            "Validations": {
                                "MaxLength": 50
                            }
                        }
                    ]
                },
                {
                    "Name": "Row6A",
                    "Control": 92,
                    "Controls": [
                        {
                            "Name": "UrgentLevel",
                            "Title": "Độ khẩn",
                            "Control": 6,
                            "ExtField": "Name",
                            "ExtFieldName": "UrgentLevelName",
                            "Request": {
                                "method": "get",
                                "endpoint": "edoc/ctl/Catalog/GetByCategory/UrgentLevel",
                                "cache": {
                                    "enable": true,
                                    "maxAge": 60
                                }
                            },
                            "props": {
                                "optionLabel": "Name",
                                "optionValue": "Code",
                                "tabIndex": -1
                            }
                        },
                        {
                            "Name": "DocDate",
                            "Title": "Ngày văn bản",
                            "Control": 1,
                            "props": {
                                "disabled": true,
                                "dateFormat": "dd/mm/yy",
                                "mask": "99/99/9999",
                                "showIcon": true,
                                "showButtonBar": true,
                                "monthNavigator": true,
                                "yearNavigator": true,
                                "yearRange": "2000:2030"
                            }
                        }
                    ]
                },
                {
                    "Name": "Row6B",
                    "Control": 92,
                    "Controls": [                       
                        {
                            "Name": "EmptyIsImportance",
                            "Control": 96,
                            "ControlClass": "p-col-12 p-md-2"
                        },
                        {
                            "Name": "Props.IsImportance",
                            "Title": "Hồ sơ trọng điểm",
                            "HideLabel": true,
                            "Control": 3,
                            "ControlClass": "p-md-2",
                            "props": {
                                "disabled": true
                            }
                        }
                    ]
                },
                {
                    "Name": "Row7",
                    "Control": 92,
                    "Controls": [
                        {
                            "Name": "Notes",
                            "Title": "Ghi chú",
                            "Control": 11,
                            "props": {
                                "rows": 3
                            },
                            "Validations": {
                                "MaxLength": 500
                            }
                        }
                    ]
                },
                {
                    "Name": "Row8",
                    "Control": 92,
                    "Controls": [
                        {
                            "Name": "ContentStreams",
                            "Title": "Tệp tờ trình ký số",
                            "Control": 57,
                            "DocumentStoreId": 3,
                            "ContentType": "1",
                            "MultiValue": true,
                            "AllowSign": true,
                            "Large": true,
                            "props": {
                                "maxFileSize": 1048576,
                                "auto": true,
                                "customUpload": true
                            },
                            "ReadOnly": true
                        }
                    ]
                },
                {
                    "Name": "Row8_1",
                    "Control": 92,
                    "Controls": [
                        {
                            "Name": "VBD_ContentStreams",
                            "Title": "Tệp văn bản đi ký số",
                            "Control": 57,
                            "DocumentStoreId": 3,
                            "ContentType": "101",
                            "MultiValue": true,
                            "AllowSign": true,
                            "Large": true,
                            "props": {
                                "maxFileSize": 1048576,
                                "auto": true,
                                "customUpload": true
                            },
                            "ReadOnly": true
                        }
                    ]
                },
                {
                    "Name": "Row9",
                    "Control": 92,
                    "Controls": [
                        {
                            "Name": "Link_ContentStreams",
                            "Title": "Các tệp phát hành kèm văn bản đi",
                            "Control": 57,
                            "DocumentStoreId": 3,
                            "ContentType": "102",
                            "MultiValue": true,
                            "Large": true,
                            "AllowSign": true,
                            "props": {
                                "maxFileSize": 1048576,
                                "auto": true,
                                "customUpload": true
                            },
                            "ReadOnly": true
                        }
                    ]
                },
                {
                    "Name": "Row8A",
                    "Control": 92,
                    "Controls": [
                        {
                            "Name": "Presentation_ContentStreams",
                            "Title": "Văn bản thuyết trình",
                            "Control": 57,
                            "DocumentStoreId": 3,
                            "ContentType": "3",
                            "MultiValue": true,
                            "Large": true,
                            "props": {
                                "maxFileSize": 1048576,
                                "auto": true,
                                "customUpload": true
                            }
                        }
                    ]
                },
                {
                    "Name": "Row10",
                    "Control": 92,
                    "Controls": [
                        {
                            "Control": 11,
                            "Title": "Ý kiến xử lý",
                            "Name": "Props.SolveInfo",
                            "props": {
                                "rows": 2
                            }
                        }
                    ]
                },
                {
                    "Name": "Row10A",
                    "Control": 92,
                    "Controls": [
                        {
                            "Control": 11,
                            "Name": "Props.Comments",
                            "Title": "Ý kiến tham mưu"
                        }
                    ]
                },
                {
                    "Name": "Row10B",
                    "Control": 92,
                    "Controls": [
                        {
                            "Control": 11,
                            "Name": "HistoryComments",
                            "Title": "Lịch sử nhập Ý kiến tham mưu",
                            "props": {
                                "disabled": true
                            }
                        }
                    ]
                },
                {
                    "Name": "Row11",
                    "Control": 92,
                    "Controls": [
                        {
                            "Name": "table_empty016",
                            "Control": 93,
                            "Title": "Văn bản gốc",
                            "ControlClass": "p-col-12 p-md-2"
                        },
                        {
                            "Name": "tableOriginDocument",
                            "Control": 27,
                            "props": {
                                "className": "p-col-12 p-md-10",
                                "emptyMessage": "Không có dữ liệu"
                            },
                            "Columns": [
                                {
                                    "field": "DocLabel",
                                    "header": "Số Ký Hiệu"
                                },
                                {
                                    "field": "DocumentStoreID",
                                    "header": "Loại văn bản",
                                    "style": {
                                        "width": "15%"
                                    }
                                },
                                {
                                    "field": "DocDate",
                                    "header": "Ngày văn bản"
                                },
                                {
                                    "field": "Brief",
                                    "header": "Trích yếu"
                                }
                            ]
                        }
                    ]
                },
                {
                    "Name": "Row011",
                    "Control": 92,
                    "Controls": [
                        {
                            "Name": "table_empty018",
                            "Control": 93,
                            "Title": "Văn bản liên quan",
                            "ControlClass": "p-col-12 p-md-2"
                        },
                        {
                            "Name": "tableRelativeDocument",
                            "Control": 27,
                            "props": {
                                "className": "p-col-12 p-md-10",
                                "selectionMode": "single",
                                "emptyMessage": "Không có dữ liệu"
                            },
                            "Columns": [
                                {
                                    "selectionMode": "multiple",
                                    "style": {
                                        "width": "5%"
                                    }
                                },
                                {
                                    "field": "DocLabel",
                                    "header": "Số Ký Hiệu",
                                    "style": {
                                        "width": "15%"
                                    }
                                },
                                {
                                    "field": "DocumentStoreID",
                                    "header": "Loại văn bản",
                                    "style": {
                                        "width": "15%"
                                    }
                                },
                                {
                                    "field": "DocDate",
                                    "header": "Ngày văn bản",
                                    "style": {
                                        "width": "15%"
                                    }
                                },
                                {
                                    "field": "Brief",
                                    "header": "Trích yếu",
                                    "style": {
                                        "width": "50%"
                                    }
                                }
                            ]
                        },
                        {
                            "Name": "RowAddRelativeDocument",
                            "Control": 92,
                            "ControlClass": "button-right-align",
                            "Controls": [
                                {
                                    "Name": "AddRelativeDocument",
                                    "Control": 25,
                                    "props": {
                                        "className": "p-button-rounded p-button-text",
                                        "icon": "pi pi-plus"
                                    }
                                },
                                {
                                    "Name": "CancelRelativeDocument",
                                    "Control": 25,
                                    "props": {
                                        "className": "p-button-rounded p-button-text",
                                        "icon": "pi pi-times"
                                    }
                                }
                            ]
                        }
                    ]
                }
            ]
        },
        {
            "Name": "ProcessingInfo",
            "Control": 92,
            "ControlClass": "p-col-12 p-md-12",
            "Controls": [
                {
                    "Name": "tbYKien",
                    "Control": 27,
                    "props": {
                        "header": "Quá trình luân chuyển, cho ý kiến",
                        "emptyMessage": "Không có dữ liệu!"
                    },
                    "Columns": [
                        {
                            "field": "CreatedByName",
                            "header": "Người chuyển",
                            "style": {
                                "width": "15%"
                            }
                        },
                        {
                            "field": "RoleName",
                            "header": "Vai trò chuyển",
                            "style": {
                                "width": "15%"
                            }
                        },
                        {
                            "field": "Created",
                            "header": "Ngày chuyển",
                            "style": {
                                "width": "15%"
                            }
                        },
                        {
                            "field": "Comment",
                            "header": "Ý kiến",
                            "style": {
                                "width": "40%"
                            }
                        },
                        {
                            "field": "Recipients",
                            "header": "Đơn vị nhận ",
                            "style": {
                                "width": "15%"
                            }
                        }
                    ]
                }
            ]
        },
        {
            "Name": "Tab4",
            "Control": 91,
            "Title": "Thông tin Văn bản đi",
            "Controls": [
                {
                    "Name": "Row15",
                    "Control": 92,
                    "Controls": [
                        {
                            "Name": "VBD_DocumentTypeID",
                            "Title": "Loại văn bản",
                            "Control": 6,
                            "ExtField": "Name",
                            "ExtFieldName": "VBD_DocumentTypeName",
                            "Request": {
                                "method": "get",
                                "endpoint": "edoc/doc/Common/GetDocumentType",
                                "cache": {
                                    "enable": true,
                                    "maxAge": 60
                                }
                            },
                            "Validations": {
                                "Required": true
                            },
                            "props": {
                                "optionLabel": "Name",
                                "optionValue": "Code",
                                "disabled": true
                            }
                        }
                    ]
                },
                {
                    "Name": "Row16",
                    "Control": 92,
                    "Controls": [
                        {
                            "Name": "Props.VBD_SignedBy",
                            "Title": "Người ký",
                            "Control": 95,
                            "Request": {
                                "method": "get",
                                "endpoint": "edoc/DOC/Common/GetSigner?category=Signer&inputType=11",
                                "cache": {
                                    "enable": true,
                                    "maxAge": 60
                                }
                            },
                            "ValueTemplate": "<%=Name%>",
                            "ExtValueTemplate": "<%=Extent1%>",
                            "ExtFieldName": "Props.PositionName",
                            "props": {
                                "multiple": false,
                                "forceSelection": false,
                                "autoHighlight": true,
                                "delay": 10
                            },
                            "Validations": {
                                "Required": true
                            }
                        },
                        {
                            "Name": "Props.PositionName",
                            "Control": 10,
                            "Title": "Chức vụ",
                            "props": {
                                "disabled": true
                            }
                        }
                    ]
                },
                {
                    "Name": "Row17N",
                    "Control": 92,
                    "Controls": [
                        {
                            "Name": "VBD_UrgentLevel",
                            "Title": "Độ khẩn",
                            "Control": 6,
                            "Request": {
                                "method": "get",
                                "endpoint": "edoc/ctl/Catalog/GetByCategory/UrgentLevel",
                                "cache": {
                                    "enable": true,
                                    "maxAge": 60
                                }
                            },
                            "props": {
                                "optionLabel": "Name",
                                "optionValue": "Code",
                                "tabIndex": -1,
                                "disabled": true
                            }
                        },
                        {
                            "Name": "VBD_DueDate",
                            "Control": 1,
                            "Title": "Hạn trả lời",
                            "props": {
                                "dateFormat": "dd/mm/yy",
                                "mask": "99/99/9999",
                                "showIcon": true,
                                "showButtonBar": true,
                                "monthNavigator": true,
                                "yearNavigator": true,
                                "yearRange": "2000:2030",
                                "disabled": true
                            }
                        }
                    ]
                },
                {
                    "Name": "Row18",
                    "Control": 92,
                    "Controls": [
                        {
                            "Name": "VBD_Brief",
                            "Title": "Trích yếu",
                            "Control": 11,
                            "props": {
                                "disabled": true
                            },
                            "Validations": {
                                "MaxLength": 500
                            }
                        }
                    ]
                },
                {
                    "Name": "RowInReceiver",
                    "Control": 92,
                    "Controls": [
                        {
                            "Name": "Props.InReceiver",
                            "Title": "Nơi nhận trong ngành",
                            "Control": 94,
                            "LabelClass": "p-md-2",
                            "ControlClass": "p-md-4",
                            "Request": {
                                "method": "get",
                                "endpoint": "edoc/ctl/Sender/GetSender?types=0,1",
                                "payload": {},
                                "cache": {
                                    "enable": true,
                                    "maxAge": 60
                                }
                            },
                            "IDTemplate": "0:#ID;#6:#Type",
                            "ValueTemplate": "<%=ID%>:#<%=OrgCode%>:#<%=AreaCode%>:#<%=eCode%>:#na:#<%=Code%>:#<%=Type%>",
                            "LabelTemplate": "<%=Name%>",
                            "ExtLabelFieldName": "Props.InReceiverName",
                            "ItemTemplate": "<%=InputCode%>|<%=Name%>",
                            "SelectedItemTemplate": "<%=Code%>",
                            "Large": false,
                            "props": {
                                "field": "InputCode|%Name",
                                "multiple": true,
                                "forceSelection": true,
                                "autoHighlight": true,
                                "disabled": true
                            },
                            "Validations": {
                                "Required": false,
                                "Formula": {
                                    "Expression": "<%= !Props.InReceiver  && !Props.OutReceiver %>",
                                    "ErrorMessage": "Nơi nhận trong ngành bắt buộc nhập"
                                }
                            }
                        }
                    ]
                },
                {
                    "Name": "RowOutReceiver",
                    "Control": 92,
                    "Controls": [
                        {
                            "Name": "Props.OutReceiver",
                            "Title": "Nơi nhận ngoài ngành",
                            "Control": 94,
                            "LabelClass": "p-md-2",
                            "ControlClass": "p-md-4",
                            "Request": {
                                "method": "get",
                                "endpoint": "edoc/ctl/Sender/GetSender?types=2",
                                "payload": {},
                                "cache": {
                                    "enable": true,
                                    "maxAge": 60
                                }
                            },
                            "IDTemplate": "0:#ID;#6:#Type",
                            "ValueTemplate": "<%=ID%>:#<%=OrgCode%>:#<%=AreaCode%>:#<%=eCode%>:#na:#<%=Code%>:#<%=Type%>",
                            "LabelTemplate": "<%=Name%>",
                            "ExtLabelFieldName": "Props.OutReceiverName",
                            "ItemTemplate": "<%=InputCode%>|<%=Name%>",
                            "SelectedItemTemplate": "<%=Code%>",
                            "Large": false,
                            "props": {
                                "field": "InputCode|%Name",
                                "multiple": true,
                                "forceSelection": true,
                                "autoHighlight": true,
                                "disabled": true
                            },
                            "Validations": {
                                "Required": false
                            }
                        }
                    ]
                },
                {
                    "Name": "Row20",
                    "Control": 92,
                    "Controls": [
                        {
                            "Name": "Props.VBD_Reporter",
                            "Title": "LĐ Tổng cục để báo cáo",
                            "Control": 94,
                            "Request": {
                                "method": "get",
                                "endpoint": "edoc/ctl/Catalog/GetByCategory/Leader",
                                "payload": {},
                                "cache": {
                                    "enable": true,
                                    "maxAge": 60
                                }
                            },
                            "ValueTemplate": "<%=ID%>:#<%=Code%>:#<%=Name%>",
                            "LabelTemplate": "<%=InputCode%> - <%=Name%>",
                            "ItemTemplate": "<%=InputCode%>|<%=Name%>",
                            "SelectedItemTemplate": "<%=InputCode%>",
                            "Large": false,
                            "props": {
                                "field": "InputCode|%Name",
                                "multiple": true,
                                "forceSelection": true,
                                "autoHighlight": true,
                                "disabled": true
                            }
                        }
                    ]
                },
                {
                    "Name": "Row21",
                    "Control": 92,
                    "Controls": [
                        {
                            "Name": "VBD_Copies",
                            "Title": "Số ĐV nhận bản giấy",
                            "Validations": {
                                "Regular": {
                                    "Expression": "^\\d+$",
                                    "ErrorMessage": "Nhập đúng định dạng số"
                                }
                            },
                            "Control": 10,
                            "props": {
                                "disabled": true,
                                "keyfilter": "pint"
                            }
                        },
                        {
                            "Name": "VBD_eCopies",
                            "Title": "Số ĐV nhận bản điện tử",
                            "Validations": {
                                "Regular": {
                                    "Expression": "^\\d+$",
                                    "ErrorMessage": "Nhập đúng định dạng số"
                                }
                            },
                            "Control": 10,
                            "props": {
                                "disabled": true,
                                "keyfilter": "pint"
                            }
                        }
                    ]
                },
                {
                    "Name": "Row22",
                    "Control": 92,
                    "Controls": [
                        {
                            "Control": 10,
                            "Name": "Props.VBD_NumOfReleases",
                            "Title": "Số lượng bản phát hành",
                            "props": {
                                "disabled": true,
                                "keyfilter": "pint"
                            },
                            "Validations": {
                                "Regular": {
                                    "Expression": "^\\d+$",
                                    "ErrorMessage": "Nhập đúng định dạng số"
                                }
                            }
                        },
                        {
                            "Control": 96,
                            "Name": "EmptyVBD_WithPaper",
                            "ControlClass": "p-col-2 p-md-2"
                        },
                        {
                            "Control": 3,
                            "Name": "VBD_WithPaper",
                            "HideLabel": true,
                            "Title": "VB điện tử có kèm bản giấy",
                            "props": {
                                "disabled": true
                            }
                        }
                    ]
                },
                {
                    "Name": "Row23",
                    "Control": 92,
                    "Controls": [
                        {
                            "Control": 10,
                            "Name": "VBD_Language",
                            "Title": "Ngôn ngữ",
                            "props": {
                                "disabled": true
                            },
                            "Validations": {
                                "MaxLength": 30
                            }
                        },
                        {
                            "Control": 10,
                            "Name": "VBD_Pages",
                            "Title": "Số trang",
                            "props": {
                                "disabled": true,
                                "keyfilter": "pint"
                            },
                            "Validations": {
                                "Regular": {
                                    "Expression": "^\\d+$",
                                    "ErrorMessage": "Nhập đúng định dạng số"
                                }
                            }
                        }
                    ]
                },
                {
                    "Name": "Row24",
                    "Control": 92,
                    "Controls": [
                        {
                            "Control": 6,
                            "Title": "Loại nghiệp vụ",
                            "Name": "VBD_BussinessDocType",
                            "ExtFieldName": "VBD_BussinessDocTypeName",
                            "ExtField": "Name",
                            "Request": {
                                "method": "get",
                                "endpoint": "edoc/dms/Document/GetBussinessDocType",
                                "cache": {
                                    "enable": true,
                                    "maxAge": 60
                                }
                            },
                            "props": {
                                "optionLabel": "Name",
                                "optionValue": "ID",
                                "disabled": true
                            }
                        }
                    ]
                },
                {
                    "Name": "Row017",
                    "Control": 92,
                    "Controls": [
                        {
                            "Name": "table_empty7",
                            "Control": 93,
                            "Title": "Văn bản thay thế/ thu hồi",
                            "ControlClass": "p-col-12 p-md-2"
                        },
                        {
                            "Name": "tableReplaceDocument",
                            "Control": 27,
                            "props": {
                                "className": "p-col-12 p-md-10",
                                "selectionMode": "single",
                                "emptyMessage": "Không có dữ liệu"
                            },
                            "Columns": [
                                {
                                    "selectionMode": "multiple",
                                    "style": {
                                        "width": "5%"
                                    }
                                },
                                {
                                    "field": "DocLabel",
                                    "header": "Số Ký Hiệu"
                                },
                                {
                                    "field": "DocumentStoreID",
                                    "header": "Loại văn bản",
                                    "style": {
                                        "width": "15%"
                                    }
                                },
                                {
                                    "field": "Brief",
                                    "header": "Trích yếu"
                                },
                                {
                                    "field": "SignedBy",
                                    "header": "Người ký"
                                }
                            ]
                        },
                        {
                            "Name": "RowAddReplaceDocument",
                            "Control": 92,
                            "ControlClass": "button-right-align",
                            "Controls": [
                                {
                                    "Name": "AddReplaceDocument",
                                    "Control": 25,
                                    "props": {
                                        "className": "p-button-rounded p-button-text",
                                        "icon": "pi pi-plus",
                                        "disabled": true
                                    }
                                },
                                {
                                    "Name": "CancelReplaceDocument",
                                    "Control": 25,
                                    "props": {
                                        "className": "p-button-rounded p-button-text",
                                        "icon": "pi pi-times",
                                        "disabled": true
                                    }
                                }
                            ]
                        }
                    ]
                },
                {
                    "Name": "Row014",
                    "Control": 92,
                    "Controls": [
                        {
                            "Name": "table_empty4",
                            "Control": 93,
                            "ControlClass": "p-col-12 p-md-12"
                        }
                    ]
                }
            ]
        }
    ],
    "Buttons": [
        {
            "Control": 25,
            "Name": "ChuyenLDBo",
            "props": {
                "label": "Chuyển LĐ Tổng cục",
                "className": "p-mt-2"
            }
        },
        {
            "Control": 25,
            "Name": "TraLaiDV",
            "props": {
                "label": "Trả lại đơn vị",
                "className": "p-mt-2"
            }
        },
        {
            "Control": 25,
            "Name": "UpdateTT",
            "props": {
                "label": "Ghi lại",
                "className": "p-mt-2"
            }
        },
        {
            "Control": 25,
            "Name": "LichSu",
            "props": {
                "label": "Lịch sử",
                "className": "p-mt-2"
            }
        },
        {
            "Control": 25,
            "Name": "Close",
            "props": {
                "label": "Đóng",
                "className": "p-mt-2"
            }
        },
        {
            "Name": "ExtButton",
            "Control": 26,
            "props": {
                "label": "Chuyển chức năng"
            }
        }
    ]
}