{
    "code": "ExternalReceicer",
    "name": "ExternalReceicer",
    "description": "Nơi nhận ngoài danh mục",
    "dataType": 2,
    "status": 1,
    "required": false,
    "defaultValue": "",
    "seqNo": 0,
    "documentStoreID": 2
  }