{
	"Title": "Tạo mới tờ trình đơn vị (Kèm văn bản đi)",
	"Mode": 0,
	"Controls": [
		{
			"Name": "Row1",
			"Control": 92,
			"Controls": [
				{
					"Name": "DocumentRegisterID",
					"Title": "Loại tờ trình",
					"Control": 6,
					"PreventDefault": true,
					"ExtField": "Name",
					"ExtFieldName": "DocumentRegisterName",
					"Validations": {
						"Required": true
					},
					"Request": {
						"method": "get",
						"endpoint": "edoc/dms/DocumentRegister/GetByStoreAndDefault?documentStoreId=3&isDefault=false",
						"cache": {
							"enable": true,
							"maxAge": 60
						}
					},
					"props": {
						"optionLabel": "Name",
						"optionValue": "Code"
					}
				},
				{
					"Name": "SourceDocNotation",
					"Title": "Số tờ trình",
					"Control": 10,
					"Validations": {
						"MaxLength": 30
					},
					"props": {
						"disabled": true
					}
				}
			]
		},
		{
			"Name": "Row02",
			"Control": 92,
			"Controls": [
				{
					"Name": "Editor",
					"Title": "Người soạn thảo",
					"Control": 10,
					"Validations": {
						"MaxLength": 50
					},
					"props": {
						"placeholder": "",
						"disabled": true
					}
				},
				{
					"Name": "Created",
					"Title": "Ngày tạo",
					"Control": 1,
					"Validations": {
						"Formula": {
							"Expression": "<%=(Created > new Date())%>",
							"ErrorMessage": "Ngày tạo không được sau ngày hiện tại."
						}
					},
					"props": {
						"dateFormat": "dd/mm/yy",
						"showOnFocus": false,
						"mask": "99/99/9999",
						"showIcon": true,
						"showButtonBar": true,
						"monthNavigator": true,
						"yearNavigator": true,
						"yearRange": "2000:2030",
						"tabIndex": -1,
						"disabled": true
					}
				}
			]
		},
		{
			"Name": "Row2",
			"Control": 92,
			"Controls": [
				{
					"Name": "DeptEditor",
					"Title": "Phòng soạn thảo",
					"Control": 10,
					"props": {
						"placeholder": "",
						"disabled": true
					},
					"Validations": {
						"MaxLength": 200
					}
				}
			]
		},
		{
			"Name": "Row3",
			"Control": 92,
			"Controls": [
				{
					"Name": "Brief",
					"Title": "Trích yếu",
					"Validations": {
						"Required": true,
						"MaxLength": 500
					},
					"Control": 11,
					"props": {
						"rows": 3
					}
				}
			]
		},
		{
			"Name": "Row4",
			"Control": 92,
			"Controls": [
				{
					"Name": "Notes",
					"Title": "Ghi chú",
					"Control": 11,
					"props": {
						"rows": 3
					},
					"Validations": {
						"MaxLength": 500
					}
				}
			]
		},
		{
			"Name": "Row5",
			"Control": 92,
			"Controls": [
				{
					"Name": "UrgentLevel",
					"Title": "Độ khẩn",
					"Control": 6,
					"PreventDefault": true,
					"ExtField": "Name",
					"ExtFieldName": "UrgentLevelName",
					"Request": {
						"method": "get",
						"endpoint": "edoc/ctl/Catalog/GetByCategory/UrgentLevel",
						"cache": {
							"enable": true,
							"maxAge": 60
						}
					},
					"props": {
						"optionLabel": "Name",
						"optionValue": "Code"
					}
				},
                {
                    "Name": "EmptyIsImportance",
                    "Control": 96,
                    "ControlClass": "p-col-12 p-md-2"
                },
                {
                    "Name": "Props.IsImportance",
                    "Title": "Hồ sơ trọng điểm",
                    "HideLabel": true,
                    "Control": 3,
                    "ControlClass": "p-md-2"
                }
			]
		},
		{
			"Name": "Row6",
			"Control": 92,
			"Controls": [
				{
					"Name": "ContentStreams",
					"Title": "Tệp tờ trình ký số",
					"Control": 57,
					"DocumentStoreId": 3,
					"ContentType": "1",
					"MultiValue": true,
					"AllowSign": true,
					"Large": true,
					"props": {
						"maxFileSize": 1048576,
						"auto": true,
						"customUpload": true
					}
				}
			]
		},
		{
			"Name": "Row7",
			"Control": 92,
			"Controls": [
				{
					"Name": "VBD_ContentStreams",
					"Title": "Tệp văn bản đi ký số",
					"Control": 57,
					"DocumentStoreId": 3,
					"ContentType": "101",
					"MultiValue": true,
					"AllowSign": true,
					"Large": true,
					"props": {
						"maxFileSize": 1048576,
						"auto": true,
						"customUpload": true
					}
				}
			]
		},
		{
			"Name": "Row8A1",
			"Control": 92,
			"Controls": [
				{
					"Name": "AttachVBD_ContentStreams",
					"Title": "Tệp phát hành kèm văn bản đi",
					"Control": 57,
					"DocumentStoreId": 3,
					"ContentType": "102",
					"MultiValue": true,
					"AllowSign": true,
					"Large": true,
					"props": {
						"maxFileSize": 1048576,
						"auto": true,
						"customUpload": true
					}
				}
			]
		},
		{
			"Name": "Row8",
			"Control": 92,
			"Controls": [
				{
					"Name": "Link_ContentStreams",
					"Title": "Văn bản trình kèm",
					"Control": 57,
					"DocumentStoreId": 3,
					"ContentType": "3",
					"MultiValue": true,
					"Large": true,
					"props": {
						"maxFileSize": 1048576,
						"auto": true,
						"customUpload": true
					}
				}
			]
		},
		{
			"Name": "Row8A",
			"Control": 92,
			"Controls": [
				{
					"Name": "Props.SolveInfo",
					"Control": 11,
					"Title": "Ý kiến xử lý",
					"props": {
						"rows": 3
					}
				}
			]
		},
		{
			"Name": "Row16",
			"Control": 92,
			"Controls": [
				{
					"Name": "table_empty016",
					"Control": 93,
					"Title": "Văn bản gốc",
					"ControlClass": "p-col-12 p-md-2"
				},
				{
					"Name": "tableOriginDocument",
					"Control": 27,
					"ControlClass": "p-col-12 p-md-10",
					"props": {
						"className": "p-col-12 p-md-10",
						"emptyMessage": "Không có dữ liệu"
					},
					"Columns": [
						{
							"field": "DocLabel",
							"header": "Số Ký Hiệu"
						},
						{
							"field": "DocumentStoreID",
							"header": "Loại văn bản",
							"style": {
								"width": "15%"
							}
						},
						{
							"field": "DocDate",
							"header": "Ngày văn bản"
						},
						{
							"field": "Brief",
							"header": "Trích yếu"
						}
					]
				}
			]
		},
		{
			"Name": "Row18",
			"Control": 92,
			"Controls": [
				{
					"Name": "table_empty018",
					"Control": 93,
					"Title": "Văn bản liên quan",
					"ControlClass": "p-col-12 p-md-2"
				},
				{
					"Name": "tableRelativeDocument",
					"Control": 27,
					"props": {
						"className": "p-col-12 p-md-10",
						"selectionMode": "single",
						"emptyMessage": "Không có dữ liệu"
					},
					"Columns": [
						{
							"selectionMode": "multiple",
							"style": {
								"width": "5%"
							}
						},
						{
							"field": "DocLabel",
							"header": "Số ký hiệu",
							"style": {
								"width": "15%"
							}
						},
						{
							"field": "DocumentStoreName",
							"header": "Loại văn bản",
							"style": {
								"width": "15%"
							}
						},
						{
							"field": "DocDate",
							"header": "Ngày văn bản",
							"style": {
								"width": "15%"
							}
						},
						{
							"field": "Brief",
							"header": "Trích yếu",
							"style": {
								"width": "50%"
							}
						}
					]
				},
				{
					"Name": "RowAddRelativeDocument",
					"Control": 92,
					"ControlClass": "button-right-align",
					"Controls": [
						{
							"Name": "AddRelativeDocument",
							"Control": 25,
							"props": {
								"className": "p-button-rounded p-button-text",
								"icon": "pi pi-plus"
							}
						},
						{
							"Name": "CancelRelativeDocument",
							"Control": 25,
							"props": {
								"className": "p-button-rounded p-button-text",
								"icon": "pi pi-times"
							}
						}
					]
				}
			]
		},
		{
			"Name": "Tab2",
			"Control": 91,
			"Title": "Thông tin văn bản đi",
			"Controls": [
				{
					"Name": "Row9",
					"Control": 92,
					"Controls": [
						{
							"Name": "VBD_DocumentTypeID",
							"Title": "Loại văn bản",
							"Control": 6,
							"ExtField": "Name",
							"ExtFieldName": "VBD_DocumentTypeName",
							"PreventDefault": true,
							"Request": {
								"method": "get",
								"endpoint": "edoc/doc/Common/GetDocumentType",
								"cache": {
									"enable": true,
									"maxAge": 60
								}
							},
							"props": {
								"optionLabel": "Name",
								"optionValue": "Code",
								"showClear": true
							},
							"Validations": {
								"Required": false
							}
						}
					]
				},
				{
					"Name": "Row10",
					"Control": 92,
					"Controls": [
						{
							"Name": "Props.VBD_SignedBy",
							"Title": "Người ký",
							"Control": 95,
							"Request": {
								"method": "get",
								"endpoint": "edoc/DOC/Common/GetSigner?category=Signer&inputType=11",
								"cache": {
									"enable": true,
									"maxAge": 60
								}
							},
							"ValueTemplate": "<%=Name%>",
							"ExtValueTemplate": "<%=Extent1%>",
							"ExtFieldName": "Props.PositionName",
							"props": {
								"multiple": false,
								"forceSelection": false,
								"autoHighlight": true,
								"delay": 10
							},
							"Validations": {
								"Required": true
							}
						},
						{
							"Name": "Props.PositionName",
							"Control": 10,
							"Title": "Chức vụ",
							"props": {
								"disabled": true
							}
						}
					]
				},
				{
					"Name": "Row11",
					"Control": 92,
					"Controls": [
						{
							"Name": "VBD_UrgentLevel",
							"Title": "Độ khẩn",
							"Control": 6,
							"PreventDefault": true,
							"ExtField": "Name",
							"ExtFieldName": "UrgentLevelName",
							"Request": {
								"method": "get",
								"endpoint": "edoc/ctl/Catalog/GetByCategory/UrgentLevel",
								"cache": {
									"enable": true,
									"maxAge": 60
								}
							},
							"props": {
								"optionLabel": "Name",
								"optionValue": "Code"
							}
						},
						{
							"Name": "VBD_DueDate",
							"Title": "Hạn trả lời",
							"Control": 1,
							"Validations": {
								"Formula": {
									"Expression": "<%=(VBD_DueDate.getDateWithoutTime() < ReceivedDate.getDateWithoutTime())%>",
									"ErrorMessage": "Hạn xử lý không được trước Ngày đến."
								}
							},
							"props": {
								"dateFormat": "dd/mm/yy",
								"showOnFocus": false,
								"mask": "99/99/9999",
								"showIcon": true,
								"showButtonBar": true,
								"monthNavigator": true,
								"yearNavigator": true,
								"yearRange": "2000:2030",
								"tabIndex": -1
							}
						}
					]
				},
				{
					"Name": "Row12",
					"Control": 92,
					"Controls": [
						{
							"Name": "VBD_Brief",
							"Title": "Trích yếu",
							"Validations": {
								"Required": true,
								"MaxLength": 500
							},
							"Control": 11,
							"props": {
								"rows": 3
							}
						}
					]
				},
				{
					"Name": "RowInReceiver",
					"Control": 92,
					"Controls": [
						{
							"Name": "Props.InReceiver",
							"Title": "Nơi nhận trong ngành",
							"Control": 94,
							"LabelClass": "p-md-2",
							"ControlClass": "p-md-4",
							"Request": {
								"method": "get",
								"endpoint": "edoc/ctl/Sender/GetSender?types=0,1",
								"payload": {},
								"cache": {
									"enable": true,
									"maxAge": 60
								}
							},
							"IDTemplate": "0:#ID;#6:#Type",
							"ValueTemplate": "<%=ID%>:#<%=OrgCode%>:#<%=AreaCode%>:#<%=eCode%>:#<%=Name%>:#<%=Code%>:#<%=Type%>",
							"LabelTemplate": "<%=Name%>",
							"ItemTemplate": "<%=InputCode%>|<%=Name%>",
							"SelectedItemTemplate": "<%=Code%>",
							"Large": false,
							"props": {
								"field": "InputCode|%Name",
								"multiple": true,
								"forceSelection": true,
								"autoHighlight": true
							},
							"Validations": {
								"Required": false,
								"Formula": {
									"Expression": "<%= !Props.InReceiver  && !Props.OutReceiver %>",
									"ErrorMessage": "Nơi nhận trong ngành bắt buộc nhập"
								}
							},
							"ActionButton":{
								"Name": "SelectInReceiver",
								"Control": 25,
								"props": {
									"icon": "pi pi-ellipsis-h p-pl-2 p-pr-2",
									"tabIndex": -1
								}
							}
						}						
					]
				},
				{
					"Name": "RowOutReceiver",
					"Control": 92,
					"Controls": [
						{
							"Name": "Props.OutReceiver",
							"Title": "Nơi nhận ngoài ngành",
							"Control": 94,
							"LabelClass": "p-md-2",
							"ControlClass": "p-md-4",
							"Request": {
								"method": "get",
								"endpoint": "edoc/ctl/Sender/GetSender?types=2",
								"payload": {},
								"cache": {
									"enable": true,
									"maxAge": 60
								}
							},
							"IDTemplate": "0:#ID;#6:#Type",
							"ValueTemplate": "<%=ID%>:#<%=OrgCode%>:#<%=AreaCode%>:#<%=eCode%>:#<%=Name%>:#<%=Code%>:#<%=Type%>",
							"LabelTemplate": "<%=Name%>",
							"ItemTemplate": "<%=InputCode%>|<%=Name%>",
							"SelectedItemTemplate": "<%=Code%>",
							"Large": false,
							"props": {
								"field": "InputCode|%Name",
								"multiple": true,
								"forceSelection": true,
								"autoHighlight": true
							},
							"Validations": {
								"Required": false
							},
							"ActionButton":{
								"Name": "SelectOutReceiver",
								"Control": 25,
								"props": {
									"icon": "pi pi-ellipsis-h p-pl-2 p-pr-2",
									"tabIndex": -1
								}
							}
						}
					]
				},
				{
					"Name": "Row_023",
					"Control": 92,
					"Controls": [
						{
							"Name": "Props.VBD_Receiver",
							"Title": "Nơi nhận trong đơn vị",
							"Control": 94,
							"Request": {
								"method": "get",
								"endpoint": "edoc/ums/Organization/GetByParentCodeAndType?type=2&getParent=false",
								"payload": {},
								"cache": {
									"enable": true,
									"maxAge": 60
								}
							},
							"ValueTemplate": "<%=ID%>:#<%=Code%>:#<%=Name%>",
							"LabelTemplate": "<%=Code%> - <%=Name%>",
							"ItemTemplate": "<%=Code%>|<%=Name%>",
							"SelectedItemTemplate": "<%=Code%>",
							"Large": false,
							"props": {
								"field": "Code|%Name",
								"multiple": true,
								"forceSelection": true,
								"autoHighlight": true
							}
						}
					]
				},
				{
					"Name": "Row14",
					"Control": 92,
					"Controls": [
						{
							"Name": "VBD_Copies",
							"Title": "Số ĐV nhận bản giấy",
							"Validations": {
								"Regular": {
									"Expression": "^\\d+$",
									"ErrorMessage": "Nhập đúng định dạng số"
								}
							},
							"Control": 10,
							"props": {
								"keyfilter": "pint"
							}
						},
						{
							"Name": "VBD_eCopies",
							"Title": "Số ĐV nhận bản điện tử",
							"Validations": {
								"Regular": {
									"Expression": "^\\d+$",
									"ErrorMessage": "Nhập đúng định dạng số"
								}
							},
							"Control": 10,
							"props": {
								"keyfilter": "pint"
							}
						}
					]
				},
				{
					"Name": "Row014_",
					"Control": 92,
					"Controls": [
						{
							"Name": "Props.VBD_NumOfReleases",
							"Title": "Số lượng bản phát hành",
							"Validations": {
								"Regular": {
									"Expression": "^\\d+$",
									"ErrorMessage": "Nhập đúng định dạng số"
								}
							},
							"Control": 10,
							"props": {
								"keyfilter": "pint"
							}
						},
						{
							"Control": 96,
							"Name": "EmptyVBD_WithPaper",
							"ControlClass": "p-col-2 p-md-2"
						},
						{
							"Name": "VBD_WithPaper",
							"HideLabel": true,
							"Title": "VB điện tử có kèm bản giấy",
							"Validations": {},
							"Control": 3
						}
					]
				},
				{
					"Name": "Row15",
					"Control": 92,
					"Controls": [
						{
							"Name": "VBD_Language",
							"Title": "Ngôn ngữ",
							"DefaultValue": "Tiếng Việt",
							"Control": 10
						},
						{
							"Name": "VBD_Pages",
							"Title": "Số trang",
							"DefaultValue": "1",
							"Control": 10,
							"Validations": {
								"Regular": {
									"Expression": "^\\d+$",
									"ErrorMessage": "Nhập đúng định dạng số"
								}
							},
							"props": {
								"keyfilter": "pint"
							}
						}
					]
				},
				{
					"Name": "Row015",
					"Control": 92,
					"Controls": [
						{
							"Name": "VBD_BussinessDocType",
							"Title": "Loại nghiệp vụ",
							"Control": 6,
							"PreventDefault": true,
							"ExtFieldName": "VBD_BussinessDocTypeName",
							"ExtField": "Name",
							"Request": {
								"method": "get",
								"endpoint": "edoc/dms/Document/GetBussinessDocType",
								"cache": {
									"enable": true,
									"maxAge": 60
								}
							},
							"props": {
								"optionLabel": "Name",
								"optionValue": "ID"
							},
							"Validations": {
								"Required": true
							}
						}
					]
				},
				{
					"Name": "Row17",
					"Control": 92,
					"Controls": [
						{
							"Name": "table_empty7",
							"Control": 93,
							"Title": "Văn bản thay thế/ thu hồi",
							"ControlClass": "p-col-12 p-md-2"
						},
						{
							"Name": "tableReplaceDocument",
							"Control": 27,
							"props": {
								"className": "p-col-12 p-md-10",
								"selectionMode": "single",
								"emptyMessage": "Không có dữ liệu"
							},
							"Columns": [
								{
									"selectionMode": "multiple",
									"style": {
										"width": "5%"
									}
								},
								{
									"field": "DocLabel",
									"header": "Số Ký Hiệu"
								},
								{
									"field": "DocumentStoreID",
									"header": "Loại văn bản",
									"style": {
										"width": "15%"
									}
								},
								{
									"field": "Brief",
									"header": "Trích yếu"
								},
								{
									"field": "SignedBy",
									"header": "Người ký"
								}
							]
						},
						{
							"Name": "RowAddReplaceDocument",
							"Control": 92,
							"ControlClass": "button-right-align",
							"Controls": [
								{
									"Name": "AddReplaceDocument",
									"Control": 25,
									"props": {
										"className": "p-button-rounded p-button-text",
										"icon": "pi pi-plus"
									}
								},
								{
									"Name": "CancelReplaceDocument",
									"Control": 25,
									"props": {
										"className": "p-button-rounded p-button-text",
										"icon": "pi pi-times"
									}
								}
							]
						}
					]
				}
			]
		},
		{
			"Name": "Row014",
			"Control": 92,
			"Controls": [
				{
					"Name": "table_empty014",
					"Control": 93,
					"ControlClass": "p-col-12 p-md-12"
				}
			]
		}
	],
	"Buttons": [
		{
			"Name": "GhiLai",
			"Control": 25,
			"props": {
				"label": "Ghi lại",
				"className": "p-mt-2"
			}
		},
		{
			"Name": "Refresh",
			"Control": 25,
			"props": {
				"label": "Làm mới",
				"className": "p-mt-2"
			}
		},
		{
			"Name": "Close",
			"Control": 25,
			"props": {
				"label": "Đóng",
				"className": "p-hidden",
				"disabled": true
			}
		}
	]
}