{
    "Title": "Tạo mới văn bản đến",
    "Mode": 0,
    "Controls": [
        {
            "Name": "Row1",
            "Control": 92,
            "Controls": [
                {
                    "Name": "DocumentRegisterID",
                    "Title": "Loại sổ",
                    "Control": 6,
                    "ExtFieldName": "DocumentRegisterName",
                    "ExtField": "Name",
                    "PreventDefault": true,
                    "Request": {
                        "method": "get",
                        "endpoint": "edoc/DOC/Common/GetDocumentRegisterByStoreId?documentStoreId=1",
                        "payload": {},
                        "cache": {
                            "enable": true,
                            "maxAge": 60
                        }
                    }, 
                    "Validations": {
                        "Required": true
                    },
                    "props": {
                        "optionLabel": "Name",
                        "optionValue": "Code",
                        "tabIndex": -1
                    }
                },
                {
                    "Name": "ReceivedDate",
                    "Title": "Ngày đến",
                    "Control": 1,
                    "props": {
                        "dateFormat": "dd/mm/yy",
                        "mask": "99/99/9999",
                        "showOnFocus": false,
                        "showIcon": true,
                        "showButtonBar": true,
                        "monthNavigator": true,
                        "yearNavigator": true,
                        "yearRange": "2020:2030",
                        "tabIndex": -1
                    },
                    "Validations": {
                        "Required": true,
                        "Formula": {
                            "Expression": "<%=((new Date(ReceivedDate)).withoutTime() > (new Date()).withoutTime())%>",
                            "ErrorMessage": "Ngày đến không được sau ngày hiện tại."
                        }
                    }
                }
            ]
        },
        {
            "Name": "Row2",
            "Control": 92,
            "Controls": [
                {
                    "Name": "DocNo",
                    "Title": "Số đến",
                    "Control": 10,
                    "props": {
						"keyfilter": "pint",
                        "tabIndex": -1
					},
					"Validations": {
						"Regular": {
							"Expression": "^\\d+$",
							"ErrorMessage": "Nhập đúng định dạng số"
						}
					}
                },
                {
                    "Name": "DocDate",
                    "Title": "Ngày văn bản",
                    "Control": 1,
                    "Validations": {
                        "Formula": {
                            "Expression": "<%=(DocDate !== null && (new Date(DocDate)).withoutTime() > (new Date(ReceivedDate)).withoutTime())%>",
                            "ErrorMessage": "Ngày văn bản không được lớn hơn ngày đến"
                        }
                    },
                    "props": {
                        "dateFormat": "dd/mm/yy",
                        "mask": "99/99/9999",
                        "showOnFocus": false,
                        "showIcon": true,
                        "showButtonBar": true,
                        "monthNavigator": true,
                        "yearNavigator": true,
                        "yearRange": "2020:2030"
                    }
                }
            ]
        },
        {
            "Name": "Row3",
            "Control": 92,
            "Controls": [
                {
                    "Name": "SourceDocNo",
                    "Title": "Số ký hiệu",
                    "Control": 10,
                    "LabelClass": "p-col-4 p-md-2",
                    "ControlClass": "p-md-1",
                    "Validations": {
                        "MaxLength": 11
                    },
                    "props": {
                        "autoFocus": true
                    }
                },
                {
                    "Name": "Notation",
                    "HideLabel": true,
                    "ControlClass": "p-md-3",
                    "Control": 95,
                    "Request": {
                        "method": "get",
                        "endpoint": "edoc/ctl/Catalog/GetByCategory/DocNotation",
                        "payload": {}
                    },
                    "Validations": {
                        "MaxLength": 30
                    },
                    "ValueTemplate": "<%=Name%>",
                    "props": {
                        "multiple": false,
                        "forceSelection": false,
                        "autoHighlight": true,
                        "delay": 10
                    },
                    "ActionButton": {
                        "Name": "AddNotation",
                        "Control": 25,
                        "ControlClass": "p-md-2",
                        "props": {
                            "icon": "pi pi-plus p-pl-2 p-pr-2",
                            "tabIndex": -1
                        }
                    }
                }
            ]
        },
        {
            "Name": "Row4",
            "Control": 92,
            "Controls": [
                {
                    "Name": "Props.Sender",
                    "Title": "Nơi gửi",
                    "Control": 94,
                    "LabelClass": "p-col-6 p-md-2",
                    "ControlClass": "p-md-4",
                    "Request": {
                        "method": "get",
                        "endpoint": "edoc/ctl/Sender/GetSender",
                        "payload": {}
                    },
                    "ValueTemplate": "<%=ID%>:#<%=Code%>:#<%=Name%>",
                    "LabelTemplate": "<%=Name%>",
                    "ExtLabelFieldName": "SenderName",
                    "ItemTemplate": "<%=InputCode%>|<%=Name%>",
                    "SelectedItemTemplate": "<%=Code%>",
                    "Large": false,
                    "props": {
                        "field": "InputCode|Code|%Name",
                        "multiple": false,
                        "forceSelection": true,
                        "autoHighlight": true
                    },
                    "Validations": {
                        "Required": true
                    },
                    "ActionButton": {
                        "Name": "AddSender",
                        "Control": 25,
                        "props": {
                            "icon": "pi pi-plus p-pl-2 p-pr-2",
                            "tabIndex": -1
                        }
                    }
                }
            ]
        },
        {
            "Name": "Row5",
            "Control": 92,
            "Controls": [
                {
                    "Name": "DocumentTypeID",
                    "Title": "Loại văn bản",
                    "Control": 6,
                    "ExtField": "Name",
                    "ExtFieldName": "DocumentTypeName",
                    "Request": {
                        "method": "get",
                        "endpoint": "edoc/doc/Common/GetDocumentType",
                        "payload": {},
                        "cache": {
                            "enable": true,
                            "maxAge": 60
                        }
                    },
                    "Validations": {},
                    "props": {
                        "optionLabel": "Name",
                        "optionValue": "Code",
                        "showClear": true
                    }
                },
                {
                    "Name": "UrgentLevel",
                    "Title": "Độ khẩn",
                    "Control": 6,
                    "ExtField": "Name",
                    "ExtFieldName": "UrgentLevelName",
                    "Request": {
                        "method": "get",
                        "endpoint": "edoc/ctl/Catalog/GetByCategory/UrgentLevel",
                        "payload": {},
                        "cache": {
                            "enable": true,
                            "maxAge": 60
                        }
                    },
                    "props": {
                        "optionLabel": "Name",
                        "optionValue": "Code",
                        "tabIndex": -1
                    }
                }
            ]
        },
        {
            "Name": "Row6",
            "Control": 92,
            "Controls": [
                {
                    "Name": "Props.SecretaryRecipientID",
                    "Title": "Lãnh đạo xử lý",
                    "Control": 94,
                    "QuickInput": {
                        "Field": "InputCode",
                        "Length": 2
                    },
                    "Request": {
                        "method": "get",
                        "endpoint": "edoc/DOC/Workflow/GetTargetLeaders?docStoreId=1",
                        "payload": {},
                        "cache": {
                            "enable": true,
                            "maxAge": 30
                        }
                    },
                    "IDTemplate": "0:#ID;#4:#SenderType",
                    "ValueTemplate": "<%=ID%>:#na:#<%=Code%>:#<%=eID%>:<%=OrgCode%>:<%=Code%>:<%=eCode%>:<%=IsWorkQueue%>:<%=ActivityID%>:#<%=SenderType%>",
                    "LabelTemplate": "<%=Name%>",
                    "ExtLabelFieldName": "LeaderRecipientSuggest",
                    "ItemTemplate": "<%=InputCode%>|<%=Name%>",
                    "SelectedItemTemplate": "<%=InputCode%>",
                    "Large": false,
                    "props": {
                        "field": "InputCode|%Name",
                        "multiple": false,
                        "forceSelection": true,
                        "autoHighlight": true,
                        "delay": 10
                    }
                }
            ]
        },
        {
            "Name": "Row7",
            "Control": 92,
            "Controls": [
                {
                    "Name": "Props.PresideRecipientCode",
                    "Title": "Chủ trì xử lý",
                    "Control": 94,
                    "QuickInput": {
                        "Field": "InputCode",
                        "Length": 2
                    },
                    "Request": {
                        "method": "get",
                        "endpoint": "edoc/DOC/Workflow/GetTargetDeparments?docStoreId=1",
                        "payload": {},
                        "cache": {
                            "enable": true,
                            "maxAge": 60
                        }
                    },
                    "IDTemplate": "0:#ID;#4:#SenderType",
                    "ValueTemplate": "<%=ID%>:#na:#<%=Code%>:#<%=eID%>:<%=OrgCode%>:<%=Code%>:<%=eCode%>:<%=IsWorkQueue%>:<%=ActivityID%>:#<%=SenderType%>",
                    "LabelTemplate": "<%=Name%>",
                    "ExtLabelFieldName": "PresideRecipientsSuggest",
                    "ItemTemplate": "<%=InputCode%>|<%=Name%>",
                    "SelectedItemTemplate": "<%=InputCode%>",
                    "Large": false,
                    "props": {
                        "field": "InputCode|%Name|Code",
                        "multiple": false,
                        "forceSelection": true,
                        "autoHighlight": true,
                        "delay": 10
                    }
                }
            ]
        },
        {
            "Name": "Row8",
            "Control": 92,
            "Controls": [
                {
                    "Name": "Props.CoordinatedRecipientsCode",
                    "Title": "Phối hợp xử lý",
                    "Control": 94,
                    "QuickInput": {
                        "Field": "InputCode",
                        "Length": 2
                    },
                    "Request": {
                        "method": "get",
                        "endpoint": "edoc/DOC/Workflow/GetTargetDeparments?docStoreId=1",
                        "payload": {},
                        "cache": {
                            "enable": true,
                            "maxAge": 60
                        }
                    },
                    "IDTemplate": "0:#ID;#4:#SenderType",
                    "ValueTemplate": "<%=ID%>:#na:#<%=Code%>:#<%=eID%>:<%=OrgCode%>:<%=Code%>:<%=eCode%>:<%=IsWorkQueue%>:<%=ActivityID%>:#<%=SenderType%>",
                    "LabelTemplate": "<%=Name%>",
                    "ExtLabelFieldName": "CoordinatedRecipientsSuggest",
                    "ItemTemplate": "<%=InputCode%>|<%=Name%>",
                    "SelectedItemTemplate": "<%=InputCode%>",
                    "Large": false,
                    "props": {
                        "field": "InputCode|%Name|Code",
                        "multiple": true,
                        "forceSelection": true,
                        "autoHighlight": true,
                        "delay": 10
                    }
                }
            ]
        },
        {
            "Name": "Row9",
            "Control": 92,
            "Controls": [
                {
                    "Name": "Brief",
                    "Title": "Trích yếu",
                    "Control": 11,
                    "Validations": {
                        "Required": true,
                        "MaxLength": 500
                    },
                    "Large": true,
                    "props": {
                        "rows": 3,
                        "autoResize": true
                    }
                }
            ]
        },
        {
            "Name": "Row10",
            "Control": 92,
            "Controls": [
                {
                    "Name": "Notes",
                    "Title": "Ghi chú",
                    "Control": 11,
                    "Validations": {
                        "MaxLength": 500
                    },
                    "props": {
                        "rows": 2,
                        "tabIndex": -1,
                        "autoResize": true
                    }
                }
            ]
        },
        {
            "Name": "Row11",
            "Control": 92,
            "Controls": [
                {
                    "Name": "DueDate",
                    "Title": "Hạn xử lý",
                    "Control": 1,
                    "Validations": {
                        "Formula": {
                            "Expression": "<%=(DueDate !== null && (new Date(DueDate)).withoutTime() < (new Date(ReceivedDate)).withoutTime())%>",
                            "ErrorMessage": "Hạn xử lý không được trước ngày đến"
                        }
                    },
                    "props": {
                        "dateFormat": "dd/mm/yy",
                        "mask": "99/99/9999",
                        "showIcon": true,
                        "showButtonBar": true,
                        "monthNavigator": true,
                        "yearNavigator": true,
                        "showOnFocus": false,
                        "yearRange": "2020:2030"
                    },
                    "LabelClass": "p-col-6 p-md-2",
                    "ControlClass": "p-md-2"
                },
                {
                    "Name": "Props.IsPublic",
                    "Title": "Công báo văn bản",
                    "Control": 3,
                    "HideLabel": true,
                    "ControlClass": "p-col-6 p-md-2",
                    "props": {
                        "tabIndex": -1
                    }
                },
                {
                    "Name": "Props.IsTrackingDoc",
                    "Title": "Phải theo dõi",
                    "Control": 3,
                    "HideLabel": true,
                    "ControlClass": "p-col-6 p-md-2",
                    "props": {
                        "tabIndex": -1
                    }
                },
                {
                    "Name": "Props.IsNoAttachment",
                    "Title": "Không có File   ",
                    "Control": 3,
                    "HideLabel": true,
                    "ControlClass": "p-col-6 p-md-2"
                },
                {
                    "Name": "WithPaper",
                    "Title": "Có bản giấy",
                    "Control": 3,
                    "HideLabel": true,
                    "ControlClass": "p-col-6 p-md-2",
                    "props": {
                        "tabIndex": -1
                    }
                }
            ]
        },
        {
            "Name": "Row12",
            "Control": 92,
            "Controls": [
                {
                    "Name": "Language",
                    "Title": "Ngôn ngữ",
                    "Control": 6,
                    "Request": {
                        "method": "get",
                        "endpoint": "edoc/ctl/Catalog/GetByCategory/Language",
                        "payload": {},
                        "cache": {
                            "enable": true,
                            "maxAge": 240
                        }
                    },
                    "props": {
                        "optionLabel": "Name",
                        "optionValue": "Name",
                        "tabIndex": -1
                    }
                },
                {
                    "Name": "Pages",
                    "Title": "Số trang",
                    "Control": 10,
                    "props": {
                        "tabIndex": -1,
                        "keyfilter": "pint"
                    },
                    "Validations": {
                        "Regular": {
                            "Expression": "^\\d+$",
                            "ErrorMessage": "Nhập đúng định dạng số"
                        }
                    }
                }
            ]
        },
        {
            "Name": "Row13",
            "Control": 92,
            "Controls": [
                {
                    "Name": "SignedBy",
                    "Title": "Họ tên người ký",
                    "Control": 10,
                    "Validations": {
                        "MaxLength": 50
                    },
                    "props": {
                        "tabIndex": -1
                    }
                },
                {
                    "Name": "SignedRole",
                    "Title": "Chức vụ người ký",
                    "Control": 10,
                    "Validations": {
                        "MaxLength": 100
                    },
                    "props": {
                        "tabIndex": -1
                    }
                }
            ]
        },
        {
            "Name": "Row14",
            "Control": 92,
            "Controls": [
                {
                    "Name": "ContentStreams",
                    "Title": "Tệp nội dung",
                    "Control": 57,
                    "DocumentStoreId": 1,
                    "ContentType": "0",
                    "MultiValue": true,
                    "Large": true,
                    "props": {
                        "maxFileSize": 1048576,
                        "auto": true,
                        "customUpload": true,
                        "tabIndex": -1
                    }
                }
            ]
        }
    ],
    "Buttons": [
        {
            "Name": "SaveBo",
            "Control": 25,
            "props": {
                "label": "Ghi lại",
                "className": "p-mt-2"
            }
        },
        {
            "Name": "GhiSao",
            "Control": 25,
            "props": {
                "label": "Ghi -> Sao",
                "className": "p-mt-2"
            }
        },
        {
            "Name": "TimSao",
            "Control": 25,
            "props": {
                "label": "Tìm -> Sao",
                "className": "p-mt-2"
            }
        },
        {
            "Name": "Search",
            "Control": 25,
            "props": {
                "label": "Tìm kiếm",
                "className": "p-mt-2"
            }
        }
    ]
}