{
	"Title": "Tạo mới tờ trình đơn vị (Không kèm văn bản đi)",
	"Mode": 0,
	"Controls": [
		{
			"Name": "Row1",
			"Control": 92,
			"Controls": [
				{
					"Name": "DocumentRegisterID",
					"Title": "Loại tờ trình",
					"Control": 6,
					"ExtField": "Name",
					"ExtFieldName": "DocumentRegisterName",
					"PreventDefault": true,
					"Request": {
						"method": "get",
						"endpoint": "edoc/dms/DocumentRegister/GetByStoreAndDefault?documentStoreId=3&isDefault=false",
						"cache": {
							"enable": true,
							"maxAge": 60
						}
					},
					"Validations": {
						"Required": true
					},
					"props": {
						"optionLabel": "Name",
						"optionValue": "Code"
					}
				},
				{
					"Name": "SourceDocNotation",
					"Title": "Số tờ trình",
					"Control": 10,
					"props": {
						"disabled": true
					},
					"Validations": {
						"MaxLength": 30
					}
				}
			]
		},
		{
			"Name": "Row2",
			"Control": 92,
			"Controls": [
				{
					"Name": "Editor",
					"Title": "Người soạn thảo",
					"Control": 10,
					"Validations": {
						"MaxLength": 50
					},
					"props": {
						"placeholder": "",
						"disabled": true
					}
				},
				{
					"Name": "Created",
					"Title": "Ngày tạo",
					"Control": 1,
					"Validations": {
						"Formula": {
							"Expression": "<%=(Created > new Date())%>",
							"ErrorMessage": "Ngày tạo không được sau ngày hiện tại."
						}
					},
					"props": {
						"dateFormat": "dd/mm/yy",
						"showOnFocus": false,
						"mask": "99/99/9999",
						"showIcon": true,
						"showButtonBar": true,
						"monthNavigator": true,
						"yearNavigator": true,
						"yearRange": "2000:2030",
						"tabIndex": -1,
						"disabled": true
					}
				}
			]
		},
		{
			"Name": "Row3",
			"Control": 92,
			"Controls": [
				{
					"Name": "DeptEditor",
					"Title": "Phòng soạn thảo",
					"Control": 10,
					"props": {
						"placeholder": "",
						"disabled": true
					},
					"Validations": {
						"MaxLength": 200
					}
				}
			]
		},
		{
			"Name": "Row4",
			"Control": 92,
			"Controls": [
				{
					"Name": "Brief",
					"Title": "Trích yếu",
					"Validations": {
						"Required": true,
						"MaxLength": 500
					},
					"Control": 11,
					"props": {
						"rows": 3
					}
				}
			]
		},
		{
			"Name": "Row5",
			"Control": 92,
			"Controls": [
				{
					"Name": "Notes",
					"Title": "Ghi chú",
					"Control": 11,
					"props": {
						"rows": 3
					},
					"Validations": {
						"MaxLength": 500
					}
				}
			]
		},
		{
			"Name": "Row6",
			"Control": 92,
			"Controls": [
				{
					"Name": "UrgentLevel",
					"Title": "Độ khẩn",
					"Control": 6,
					"PreventDefault": true,
					"ExtField": "Name",
					"ExtFieldName": "UrgentLevelName",
					"Request": {
						"method": "get",
						"endpoint": "edoc/ctl/Catalog/GetByCategory/UrgentLevel",
						"cache": {
							"enable": true,
							"maxAge": 60
						}
					},
					"props": {
						"optionLabel": "Name",
						"optionValue": "Code"
					}
				},
				{
					"Name": "EmptyIsImportance",
					"Control": 96,
					"ControlClass": "p-col-12 p-md-2"
				},
				{
					"Name": "Props.IsImportance",
					"Title": "Hồ sơ trọng điểm",
					"HideLabel": true,
					"Control": 3,
					"ControlClass": "p-md-2"
				}

			]
		},
		{
			"Name": "Row7",
			"Control": 92,
			"Controls": [
				{
					"Name": "ContentStreams",
					"Title": "Tệp tờ trình ký số",
					"Control": 57,
					"DocumentStoreId": 3,
					"ContentType": "1",
					"MultiValue": true,
					"AllowSign": true,
					"Large": true,
					"props": {
						"maxFileSize": 1048576,
						"auto": true,
						"customUpload": true
					},
					"Validations": {}
				}
			]
		},
		{
			"Name": "Row8",
			"Control": 92,
			"Controls": [
				{
					"Name": "Link_ContentStreams",
					"Title": "Văn bản trình kèm",
					"Control": 57,
					"DocumentStoreId": 3,
					"ContentType": "3",
					"MultiValue": true,
					"Large": true,
					"props": {
						"maxFileSize": 1048576,
						"auto": true,
						"customUpload": true
					}
				}
			]
		},
		{
			"Name": "Row9",
			"Control": 92,
			"Controls": [
				{
					"Name": "Props.SolveInfo",
					"Title": "Ý kiến xử lý",
					"Control": 11,
					"props": {
						"rows": 3
					}
				}
			]
		},
		{
			"Name": "Row16",
			"Control": 92,
			"Controls": [
				{
					"Name": "table_empty016",
					"Control": 93,
					"Title": "Văn bản gốc",
					"ControlClass": "p-col-12 p-md-2"
				},
				{
					"Name": "tableOriginDocument",
					"Control": 27,
					"props": {
						"className": "p-col-12 p-md-10",
						"emptyMessage": "Không có dữ liệu"
					},
					"Columns": [
						{
							"field": "DocLabel",
							"header": "Số Ký Hiệu"
						},
						{
							"field": "DocumentStoreID",
							"header": "Loại văn bản",
							"style": {
								"width": "15%"
							}
						},
						{
							"field": "DocDate",
							"header": "Ngày văn bản"
						},
						{
							"field": "Brief",
							"header": "Trích yếu"
						}
					]
				}
			]
		},
		{
			"Name": "Row18",
			"Control": 92,
			"Controls": [
				{
					"Name": "table_empty018",
					"Control": 93,
					"Title": "Văn bản liên quan",
					"ControlClass": "p-col-12 p-md-2"
				},
				{
					"Name": "tableRelativeDocument",
					"Control": 27,
					"props": {
						"className": "p-col-12 p-md-10",
						"selectionMode": "single",
						"emptyMessage": "Không có dữ liệu"
					},
					"Columns": [
						{
							"selectionMode": "multiple",
							"style": {
								"width": "5%"
							}
						},
						{
							"field": "DocLabel",
							"header": "Số ký hiệu",
							"style": {
								"width": "15%"
							}
						},
						{
							"field": "DocumentStoreName",
							"header": "Loại văn bản",
							"style": {
								"width": "15%"
							}
						},
						{
							"field": "DocDate",
							"header": "Ngày văn bản",
							"style": {
								"width": "15%"
							}
						},
						{
							"field": "Brief",
							"header": "Trích yếu",
							"style": {
								"width": "50%"
							}
						}
					]
				},
				{
					"Name": "RowAddRelativeDocument",
					"Control": 92,
					"ControlClass": "button-right-align",
					"Controls": [
						{
							"Name": "AddRelativeDocument",
							"Control": 25,
							"props": {
								"className": "p-button-rounded p-button-text",
								"icon": "pi pi-plus"
							}
						},
						{
							"Name": "CancelRelativeDocument",
							"Control": 25,
							"props": {
								"className": "p-button-rounded p-button-text",
								"icon": "pi pi-times"
							}
						}
					]
				}
			]
		}
	],
	"Buttons": [
		{
			"Name": "GhiLai",
			"Control": 25,
			"props": {
				"label": "Ghi lại",
				"className": "p-mt-2"
			}
		},
		{
			"Name": "Refresh",
			"Control": 25,
			"props": {
				"label": "Làm mới",
				"className": "p-mt-2"
			}
		},
		{
			"Name": "Close",
			"Control": 25,
			"props": {
				"label": "Đóng",
				"className": "p-hidden",
				"disabled": true
			}
		}
	]
}