"CREATED_BY","CREATED_BY_NAME","CREATED","MODIFIED_BY","MODIFIED_BY_NAME","MODIFIED","CODE","NAME","DESCRIPTION","SEQ_NO","STATUS"
,,,,,,"1",Lãnh đạo đơn vị,,1,1
,,,,,,"2","Lãnh đạo bộ phận, phòng",,2,1
,,,,,,"3",Văn thư đơn vị,,3,1
,,,,,,"4",Văn thư bộ phận,,4,1
,,,,,,"5",Chánh văn phòng,,5,1
,,,,,,"6",Thư ký lãnh đạo,,6,1
,,,,,,"7",Chuyên viên,,7,1
,,,,,,"8",Thư ký tổng hợp,,8,1
,,,,,2021-11-10 04:00:26.073,"9",Văn thư Tổng cục,,9,1
,,,,,2021-11-10 04:00:00.573,"10",Lãnh đạo Tổng cục,,10,1
,,,,,,"11",Lãnh đạo hành chính,,11,1
,,,,,,"12",Quản lý xe,,12,1
,,,,,,"13",Quản lý phòng họp,,13,1
