{
    "Controls": [
        {
            "Name": "Row1",
            "Control": 92,
            "Controls": [
                {
                    "Name": "DocumentRegisterName",
                    "Title": "Loại sổ",
                    "Control": 10,
                    "props": {
                        "tabIndex": -1,
                        "disabled": true
                    }
                },
                {
                    "Name": "PrevDocNo",
                    "Title": "Số đến PHC",
                    "Control": 10,
                    "Validations": {},
                    "props": {
                        "disabled": true
                    }
                }
            ]
        },
        {
            "Name": "Row2",
            "Control": 92,
            "Controls": [
                {
                    "Name": "DocNo",
                    "Title": "Số đến",
                    "Control": 10,
                    "Validations": {
                        "Required": true
                    },
                    "props": {
                        "disabled": true
                    }
                },
                {
                    "Name": "ReceivedDate",
                    "Title": "Ngày đến",
                    "Control": 1,
                    "Validations": {
                        "Required": true,
                        "Formula": {
                            "Expression": "<%=((new Date(ReceivedDate)).withoutTime() > (new Date()).withoutTime())%>",
                            "ErrorMessage": "Ngày đến không được sau ngày hiện tại."
                        }
                    },
                    "props": {
                        "disabled": true,
                        "dateFormat": "dd/mm/yy",
                        "mask": "99/99/9999",
                        "showIcon": true,
                        "showButtonBar": true,
                        "monthNavigator": true,
                        "yearNavigator": true,
                        "yearRange": "2000:2030"
                    }
                }
            ]
        },
        {
            "Name": "Row4",
            "Control": 92,
            "Controls": [
                {
                    "Name": "SourceDocNo",
                    "Title": "Số ký hiệu",
                    "Control": 10,
                    "LabelClass": "p-col-4 p-md-2",
                    "ControlClass": "p-md-2",
                    "props": {
                        "disabled": true
                    }
                },
                {
                    "Name": "Notation",
                    "HideLabel": true,
                    "ControlClass": "p-md-2",
                    "Control": 10,
                    "props": {
                        "disabled": true
                    }
                },
                {
                    "Name": "DocDate",
                    "Title": "Ngày văn bản",
                    "Control": 1,
                    "Validations": {},
                    "props": {
                        "disabled": true,
                        "dateFormat": "dd/mm/yy",
                        "mask": "99/99/9999",
                        "showOnFocus": false,
                        "showIcon": true,
                        "showButtonBar": true,
                        "monthNavigator": true,
                        "yearNavigator": true,
                        "yearRange": "2000:2030"
                    }
                }
            ]
        },
        {
            "Name": "Row5",
            "Control": 92,
            "Controls": [
                {
                    "Name": "Props.Sender",
                    "Title": "Mã nơi gửi",
                    "Control": 94,
                    "Request": {
                        "method": "get",
                        "endpoint": "edoc/ctl/Sender/GetSender",
                        "payload": {},
                        "cache": {
                            "enable": true,
                            "maxAge": 15
                        }
                    },
                    "ValueTemplate": "<%=ID%>:#<%=Code%>:#<%=Name%>",
                    "LabelTemplate": "<%=Name%>",
                    "ExtLabelFieldName": "SenderName",
                    "ItemTemplate": "<%=InputCode%>|<%=Name%>",
                    "SelectedItemTemplate": "<%=Code%>",
                    "Large": false,
                    "props": {
                        "field": "InputCode|Code|%Name",
                        "multiple": false,
                        "forceSelection": true,
                        "autoHighlight": true,
                        "disabled": true
                    },
                    "Validations": {
                        "Required": true
                    }
                }
            ]
        },
        {
            "Name": "Row5.1",
            "Control": 92,
            "Controls": [
                {
                    "Name": "ReporterName",
                    "Title": "Chủ trì được giao",
                    "Control": 11,
                    "ControlClass": "p-col-12 p-md-10",
                    "Large": true,
                    "Validations": {},
                    "props": {
                        "disabled": true,
                        "rows": 1
                    }
                }
            ]
        },
        {
            "Name": "Row5.2",
            "Control": 92,
            "Controls": [
                {
                    "Name": "ReceiverName",
                    "Title": "Phối hợp được giao",
                    "Control": 11,
                    "ControlClass": "p-col-12 p-md-10",
                    "Large": true,
                    "Validations": {},
                    "props": {
                        "disabled": true,
                        "rows": 1
                    }
                }
            ]
        },
        {
            "Name": "Row3",
            "Control": 92,
            "Controls": [
                {
                    "Name": "DocumentTypeID",
                    "Title": "Loại văn bản",
                    "Control": 6,
                    "Request": {
                        "method": "get",
                        "endpoint": "edoc/doc/Common/GetDocumentType",
                        "payload": {},
                        "cache": {
                            "enable": true,
                            "maxAge": 60
                        }
                    },
                    "Validations": {},
                    "props": {
                        "optionLabel": "Name",
                        "optionValue": "Code",
                        "disabled": true
                    }
                },
                {
                    "Name": "UrgentLevelName",
                    "Title": "Độ khẩn",
                    "Control": 10,
                    "props": {
                        "disabled": true
                    }
                }
            ]
        },
        {
            "Name": "Row14A",
            "Control": 92,
            "Controls": [
                {
                    "Name": "Props.NotificationRecipientsName",
                    "Title": "Thông báo",
                    "Control": 8,
                    "InputName": "NotificationRecipientsID",
                    "Large": true,
                    "props": {},
                    "Controls": [
                        {
                            "Name": "NotificationRecipientsID",
                            "Title": "Thông báo",
                            "Control": 10,
                            "props": {
                                "disabled": true
                            }
                        },
                        {
                            "Name": "btTreeViewThongBao",
                            "Control": 25,
                            "ReadOnly": true,
                            "Validations": {},
                            "props": {
                                "className": "p-button",
                                "label": "..."
                            }
                        }
                    ]
                }
            ]
        },
        {
            "Name": "Row6",
            "Control": 92,
            "Controls": [
                {
                    "Name": "Brief",
                    "Title": "Trích yếu",
                    "Control": 11,
                    "Validations": {
                        "Required": true
                    },
                    "props": {
                        "disabled": true,
                        "rows": 3
                    }
                }
            ]
        },
        {
            "Name": "Row5A",
            "Control": 92,
            "Controls": [
                {
                    "Name": "Props.MeetingStartDate",
                    "Title": "Thời gian bắt đầu",
                    "Control": 1,
                    "props": {
                        "dateFormat": "dd/mm/yy",
                        "mask": "99/99/9999",
                        "showTime": true,
                        "showIcon": true,
                        "showButtonBar": true,
                        "monthNavigator": true,
                        "yearNavigator": true,
                        "yearRange": "2020:2030"
                    }
                },
                {
                    "Name": "Props.MeetingEndDate",
                    "Title": "Thời gian kết thúc",
                    "Control": 1,
                    "props": {
                        "dateFormat": "dd/mm/yy",
                        "mask": "99/99/9999",
                        "showTime": true,
                        "showIcon": true,
                        "showButtonBar": true,
                        "monthNavigator": true,
                        "yearNavigator": true,
                        "yearRange": "2020:2030"
                    }
                }
            ]
        },
        {
            "Control": 92,
            "Name": "Row5C",
            "Controls": [
                {
                    "Name": "Props.MeetingLocation",
                    "Title": "Địa điểm",
                    "Large": true,
                    "Control": 10,
                    "props": {
                        "disabled": true
                    }
                }
            ]
        },
        {
            "Name": "5D",
            "Control": 92,
            "Controls": [
                {
                    "Name": "Props.MeetingLeader",
                    "Title": "Chủ trì cuộc họp",
                    "Large": true,
                    "Control": 10,
                    "props": {
                        "disabled": true
                    }
                }
            ]
        },
        {
            "Name": "Row10",
            "Control": 92,
            "Controls": [
                {
                    "Name": "Notes",
                    "Title": "Ghi chú",
                    "Control": 11,
                    "props": {
                        "rows": 2,
                        "autoResize": true
                    },
                    "Validations": {
                        "MaxLength": 500
                    }
                }
            ]
        },
        {
            "Name": "Row7",
            "Control": 92,
            "Controls": [
                {
                    "Name": "DueDate",
                    "Title": "Hạn xử lý",
                    "props": {
                        "dateFormat": "dd/mm/yy",
                        "mask": "99/99/9999",
                        "showIcon": true,
                        "showButtonBar": true,
                        "monthNavigator": true,
                        "yearNavigator": true,
                        "yearRange": "2000:2030"
                    },
                    "Validations": {
                        "Formula": {
                            "Expression": "<%=(DueDate !== null && (new Date(DueDate)).withoutTime() < (new Date(ReceivedDate)).withoutTime())%>",
                            "ErrorMessage": "Hạn xử lý không được trước ngày đến."
                        }
                    },
                    "Control": 1
                },
                {
                    "Name": "Props.IsTrackingDoc",
                    "Title": "Phải theo dõi",
                    "Control": 3,
                    "HideLabel": true,
                    "ControlClass": "p-col-12 p-md-2"
                },
                {
                    "Name": "Props.IsNoAttachment",
                    "Title": "Không có file",
                    "Control": 3,
                    "HideLabel": true,
                    "ControlClass": "p-col-12 p-md-2",
                    "props": {
                        "disabled": true
                    }
                },
                {
                    "Name": "WithPaper",
                    "Title": "Có bản giấy",
                    "Control": 3,
                    "HideLabel": true,
                    "ControlClass": "p-col-12 p-md-2",
                    "props": {
                        "disabled": true
                    }
                }
            ]
        },
        {
            "Name": "Row8",
            "Control": 92,
            "Controls": [
                {
                    "Name": "Language",
                    "Title": "Ngôn ngữ",
                    "Control": 10,
                    "props": {
                        "disabled": true
                    }
                },
                {
                    "Name": "Pages",
                    "Title": "Số trang",
                    "Control": 10,
                    "props": {
                        "disabled": true,
                        "keyfilter": "pint"
                    }
                }
            ]
        },
        {
            "Name": "Row9",
            "Control": 92,
            "Controls": [
                {
                    "Name": "SignedBy",
                    "Title": "Họ tên người ký",
                    "Control": 10,
                    "props": {
                        "disabled": true
                    }
                },
                {
                    "Name": "SignedRole",
                    "Title": "Chức vụ người ký",
                    "Control": 10,
                    "props": {
                        "disabled": true
                    }
                }
            ]
        },
        {
            "Name": "Row11",
            "Control": 92,
            "Controls": [
                {
                    "Name": "ContentStreams",
                    "Title": "Tệp nội dung",
                    "Control": 57,
                    "DocumentStoreId": 1,
                    "ContentType": "0",
                    "MultiValue": true,
                    "ReadOnly": true,
                    "Large": true,
                    "props": {
                        "maxFileSize": 1048576,
                        "auto": true,
                        "customUpload": true
                    }
                }
            ]
        },
        {
            "Name": "Row14A",
            "Control": 92,
            "Controls": [
                {
                    "Name": "Props.SolveInfo",
                    "Title": "Ý kiến xử lý",
                    "Control": 11,
                    "props": {
                        "rows": 3
                    },
                    "Validations": {
                        "MaxLength": 2000
                    }
                }
            ]
        },
        {
            "Name": "Row15",
            "Control": 92,
            "Controls": [
                {
                    "Name": "ResourceDocuments",
                    "Title": "Văn bản gốc",
                    "Control": 93,
                    "ControlClass": "p-col-12 p-md-2"
                },
                {
                    "Name": "Row17",
                    "Control": 92,
                    "ControlClass": "p-col-12 p-md-10",
                    "Controls": [
                        {
                            "Name": "tableOriginDocument",
                            "Control": 27,
                            "props": {
                                "emptyMessage": "Không có dữ liệu!"
                            },
                            "Columns": [
                                {
                                    "field": "DocLabel",
                                    "header": "Số ký hiệu",
                                    "headerStyle": {
                                        "width": "15%"
                                    }
                                },
                                {
                                    "field": "DocumentRegisterID",
                                    "header": "Loại văn bản",
                                    "headerStyle": {
                                        "width": "15%"
                                    }
                                },
                                {
                                    "field": "DocDate",
                                    "header": "Ngày văn bản",
                                    "headerStyle": {
                                        "width": "15%"
                                    }
                                },
                                {
                                    "field": "Brief",
                                    "header": "Trích yếu",
                                    "headerStyle": {
                                        "width": "55%"
                                    }
                                }
                            ]
                        }
                    ]
                }
            ]
        },
        {
            "Name": "Row16",
            "Control": 92,
            "Controls": [
                {
                    "Name": "RelatedDocuments",
                    "Title": "Văn bản liên quan",
                    "Control": 93,
                    "ControlClass": "p-col-12 p-md-2"
                },
                {
                    "Name": "Row16A",
                    "Control": 92,
                    "ControlClass": "p-col-12 p-md-10",
                    "Controls": [
                        {
                            "Name": "DataTableRelatedDocument",
                            "Control": 27,
                            "props": {
                                "emptyMessage": "Không có dữ liệu!"
                            },
                            "Columns": [
                                {
                                    "selectionMode": "multiple",
                                    "style": {
                                        "width": "3em"
                                    }
                                },
                                {
                                    "field": "DocLabel",
                                    "header": "Số ký hiệu",
                                    "headerStyle": {
                                        "width": "15%"
                                    }
                                },
                                {
                                    "field": "DocumentRegisterID",
                                    "header": "Loại văn bản",
                                    "headerStyle": {
                                        "width": "15%"
                                    }
                                },
                                {
                                    "field": "DocDate",
                                    "header": "Ngày văn bản",
                                    "headerStyle": {
                                        "width": "15%"
                                    }
                                },
                                {
                                    "field": "Brief",
                                    "header": "Trích yếu",
                                    "headerStyle": {
                                        "width": "55%"
                                    }
                                }
                            ]
                        }
                    ]
                },
                {
                    "Name": "Row18",
                    "Control": 92,
                    "ControlClass": "button-right-align",
                    "Controls": [
                        {
                            "Name": "AddRelativeDocument",
                            "Control": 25,
                            "props": {
                                "icon": "pi pi-plus",
                                "className": "p-button-rounded p-button-text"
                            }
                        },
                        {
                            "Name": "CancelRelativeDocument",
                            "Control": 25,
                            "props": {
                                "icon": "pi pi-times",
                                "className": "p-button-rounded p-button-text"
                            }
                        }
                    ]
                }
            ]
        },
        {
            "Name": "Tab3",
            "Control": 91,
            "Title": "Quá trình luân chuyển cho ý kiến",
            "Controls": [
                {
                    "Name": "Row23",
                    "Control": 92,
                    "Controls": [
                        {
                            "Name": "tbYKienLD",
                            "Control": 27,
                            "props": {
                                "className": "p-col-12 p-md-12",
                                "header": "Ý kiến lãnh đạo",
                                "emptyMessage": "Không có dữ liệu"
                            },
                            "Columns": [
                                {
                                    "field": "CreatedByName",
                                    "header": "Người chuyển",
                                    "style": {
                                        "width": "15%"
                                    }
                                },
                                {
                                    "field": "RoleName",
                                    "header": "Vai trò chuyển",
                                    "style": {
                                        "width": "15%"
                                    }
                                },
                                {
                                    "field": "Created",
                                    "header": "Ngày chuyển",
                                    "style": {
                                        "width": "15%"
                                    }
                                },
                                {
                                    "field": "Comment",
                                    "header": "Ý kiến",
                                    "style": {
                                        "width": "55%"
                                    }
                                }
                            ]
                        }
                    ]
                },
                {
                    "Name": "Row24",
                    "Control": 92,
                    "Controls": [
                        {
                            "Name": "tbYKienPhongCN",
                            "Control": 27,
                            "props": {
                                "className": "p-col-12 p-md-12",
                                "header": "Ý kiến phòng chức năng",
                                "emptyMessage": "Không có dữ liệu"
                            },
                            "Columns": [
                                {
                                    "field": "CreatedByName",
                                    "header": "Người chuyển",
                                    "style": {
                                        "width": "15%"
                                    }
                                },
                                {
                                    "field": "RoleName",
                                    "header": "Vai trò chuyển",
                                    "style": {
                                        "width": "15%"
                                    }
                                },
                                {
                                    "field": "Created",
                                    "header": "Ngày chuyển",
                                    "style": {
                                        "width": "15%"
                                    }
                                },
                                {
                                    "field": "Comment",
                                    "header": "Ý kiến",
                                    "style": {
                                        "width": "55%"
                                    }
                                }
                            ]
                        }
                    ]
                }
            ]
        }
    ],
    "Buttons": [
        {
            "Name": "Update",
            "Control": 25,
            "props": {
                "label": "Ghi lại",
                "className": "p-mt-2"
            }
        },
        {
            "Name": "ChuyenXuLy",
            "Control": 25,
            "props": {
                "label": "Chuyển xử lý",
                "className": "p-mt-2"
            }
        },
        {
            "Name": "CompleteTask",
            "Control": 25,
            "props": {
                "label": "Kết thúc",
                "className": "p-mt-2"
            }
        },
        {
            "Name": "MoveCalendar",
            "Control": 25,
            "props": {
                "label": "Chuyển lịch công tác",
                "className": "p-mt-2"
            }
        },

         {
            "Name": "TransferStorage",
            "Control": 25,
            "props": {
                "label": "Lưu trữ",
                "className": "p-mt-2"
            }
        },
        {
            "Name": "Profile",
            "Control": 25,
            "props": {
                "label": "Hồ sơ công việc",
                "className": "p-mt-2"
            }
        },
        {
            "Name": "History",
            "Control": 25,
            "props": {
                "label": "Lịch sử",
                "className": "p-mt-2"
            }
        },
        {
            "Name": "Close",
            "Control": 25,
            "props": {
                "label": "Đóng",
                "className": "p-mt-2"
            }
        }
    ]
}