{
    "Mode": 1,
    "Controls": [
        {
            "Name": "Row1",
            "Control": 92,
            "Controls": [
                {
                    "Name": "InputGroup",
                    "Title": "Lần trình trước",
                    "Control": 8,
                    "InputName": "NumberSubmission",
                    "Controls": [
                        {
                            "Name": "NumberSubmission",
                            "Control": 6,
                            "Request": {
                                "method": "get",
                                "endpoint": ""
                            },
                            "Large": false,
                            "props": {
                                "optionLabel": "Name",
                                "optionValue": "ID"
                            }
                        },
                        {
                            "Name": "bttXemToTrinh",
                            "Control": 25,
                            "props": {
                                "icon": "pi pi-search p-pl-3 p-pr-3"
                            }
                        }
                    ]
                }
            ]
        },
        {
            "Name": "Row2",
            "Control": 92,
            "Controls": [
                {
                    "Name": "DocumentRegisterID",
                    "Title": "Loại tờ trình",
                    "Control": 6,
                    "ExtField": "Name",
                    "ExtFieldName": "DocumentRegisterName",
                    "ReadOnly": true,
                    "Validations": {
                        "Required": true
                    },
                    "Request": {
                        "method": "get",
                        "endpoint": "edoc/dms/DocumentRegister/GetByStoreAndDefault?documentStoreId=3&isDefault=true",
                        "cache": {
                            "enable": true,
                            "maxAge": 60
                        }
                    },
                    "props": {
                        "optionLabel": "Name",
                        "optionValue": "Code"
                    }
                },
                {
                    "Name": "DocLabel",
                    "Title": "Số tờ trình",
                    "Control": 10,
                    "Validations": {},
                    "props": {
                        "placeholder": "",
                        "disabled": true
                    }
                }
            ]
        },
        {
            "Name": "Row3",
            "Control": 92,
            "Controls": [
                {
                    "Name": "Brief",
                    "Title": "Trích yếu",
                    "Validations": {
                        "Required": true
                    },
                    "Control": 11,
                    "props": {
                        "rows": 3
                    }
                }
            ]
        },
        {
            "Name": "Tab1",
            "Control": 91,
            "Title": "Thông tin chi tiết",
            "Controls": [
                {
                    "Name": "Row4",
                    "Control": 92,
                    "Controls": [
                        {
                            "Name": "Created",
                            "Title": "Ngày tạo",
                            "Control": 1,
                            "Validations": {
                                "Required": true,
                                "Formula": {
                                    "Expression": "<%=(Created > new Date())%>",
                                    "ErrorMessage": "Ngày tạo không được sau ngày hiện tại."
                                }
                            },
                            "props": {
                                "dateFormat": "dd/mm/yy",
                                "mask": "99/99/9999",
                                "showIcon": true,
                                "showButtonBar": true,
                                "monthNavigator": true,
                                "yearNavigator": true,
                                "yearRange": "2000:2030",
                                "disabled": true
                            }
                        },
                        {
                            "Name": "UrgentLevel",
                            "Title": "Độ khẩn",
                            "Control": 6,
                            "ExtField": "Name",
                            "ExtFieldName": "UrgentLevelName",
                            "Request": {
                                "method": "get",
                                "endpoint": "edoc/ctl/Catalog/GetByCategory/UrgentLevel",
                                "cache": {
                                    "enable": true,
                                    "maxAge": 60
                                }
                            },
                            "props": {
                                "optionLabel": "Name",
                                "optionValue": "Code"
                            }
                        }
                    ]
                },
                {
                    "Name": "Row6B",
                    "Control": 92,
                    "Controls": [
                        {
                            "Name": "EmptyIsImportance",
                            "Control": 96,
                            "ControlClass": "p-col-12 p-md-2"
                        },
                        {
                            "Name": "Props.IsImportance",
                            "Title": "Hồ sơ trọng điểm",
                            "HideLabel": true,
                            "Control": 3,
                            "ControlClass": "p-md-2"
                        },
                        {
                            "Name": "EmptyIsImportance_name",
                            "Control": 96,
                            "ControlClass": "p-col-12 p-md-2"
                        },
				
						{
							"Name": "DueDate",
							"Title": "Hạn yêu cầu trình lại",
							"Control": 1,
							"props": {
								"dateFormat": "dd/mm/yy",
								"mask": "99/99/9999",
								"showIcon": true,
								"showButtonBar": true,
								"monthNavigator": true,
								"yearNavigator": true,
								"yearRange": "2000:2030",
								"disabled": true
							}
						}
                    ]
                },
                {
                    "Name": "Row5",
                    "Control": 92,
                    "Controls": [
                        {
                            "Name": "Editor",
                            "Title": "Người soạn thảo",
                            "Control": 10,
                            "Validations": {},
                            "props": {
                                "placeholder": "",
                                "disabled": true
                            }
                        },
                        {
                            "Name": "DeptEditor",
                            "Title": "Phòng soạn thảo",
                            "Control": 10,
                            "Validations": {},
                            "props": {
                                "placeholder": "",
                                "disabled": true
                            }
                        }
                    ]
                },
                {
                    "Name": "Row6",
                    "Control": 92,
                    "Controls": [
                        {
                            "Name": "SignedBy",
                            "Title": "Người ký",
                            "Control": 95,
                            "Request": {
                                "method": "get",
                                "endpoint": "edoc/DOC/Common/GetSigner?category=Signer&inputType=11",
                                "cache": {
                                    "enable": true,
                                    "maxAge": 60
                                }
                            },
                            "ValueTemplate": "<%=Name%>",
                            "props": {
                                "multiple": false,
                                "forceSelection": false,
                                "autoHighlight": true,
                                "delay": 10
                            },
                            "Validations": {
                                "MaxLength": 50
                            }
                        },
                        {
                            "Name": "DocDate",
                            "Title": "Ngày văn bản",
                            "Control": 1,
                            "props": {
                                "dateFormat": "dd/mm/yy",
                                "mask": "99/99/9999",
                                "showIcon": true,
                                "showButtonBar": true,
                                "monthNavigator": true,
                                "yearNavigator": true,
                                "yearRange": "2000:2030"
                            }
                        }
                    ]
                },
                {
                    "Name": "Row7",
                    "Control": 92,
                    "Controls": [
                        {
                            "Name": "Notes",
                            "Title": "Ghi chú",
                            "Validations": {},
                            "Control": 11,
                            "props": {
                                "rows": 3
                            }
                        }
                    ]
                },
                {
                    "Name": "Row8",
                    "Control": 92,
                    "Controls": [
                        {
                            "Name": "ContentStreams",
                            "Title": "Tệp tờ trình ký số",
                            "Control": 57,
                            "DocumentStoreId": 3,
                            "ContentType": "1",
                            "MultiValue": true,
                            "AllowSign": true,
                            "Large": true,
                            "props": {
                                "maxFileSize": 1048576,
                                "auto": true,
                                "customUpload": true
                            }
                        }
                    ]
                },
                {
                    "Name": "Row8A",
                    "Control": 92,
                    "Controls": [
                        {
                            "Name": "Presentation_ContentStreams",
                            "Title": "Văn bản thuyết trình",
                            "Control": 57,
                            "DocumentStoreId": 3,
                            "ContentType": "3",
                            "MultiValue": true,
                            "Large": true,
                            "props": {
                                "maxFileSize": 1048576,
                                "auto": true,
                                "customUpload": true
                            }
                        }
                    ]
                },
                {
                    "Name": "Row13",
                    "Control": 92,
                    "Controls": [
                        {
                            "Name": "Props.SolveInfo",
                            "Title": "Ý kiến xử lý",
                            "Control": 11,
                            "Validations": {},
                            "props": {
                                "rows": 2
                            }
                        }
                    ]
                }
            ]
        },
        {
            "Name": "Row14",
            "Control": 92,
            "Controls": [
                {
                    "Name": "tableOriginDocument",
                    "Control": 27,
                    "props": {
                        "className": "p-col-12 p-md-10",
                        "emptyMessage": "Không có dữ liệu",
                        "header": "Văn bản gốc"
                    },
                    "Columns": [
                        {
                            "field": "DocLabel",
                            "header": "Số Ký Hiệu"
                        },
                        {
                            "field": "DocumentStoreID",
                            "header": "Loại văn bản",
                            "style": {
                                "width": "15%"
                            }
                        },
                        {
                            "field": "DocDate",
                            "header": "Ngày văn bản"
                        },
                        {
                            "field": "Brief",
                            "header": "Trích yếu"
                        }
                    ]
                }
            ]
        },
        {
            "Name": "Row018",
            "Control": 92,
            "Controls": [
                {
                    "Name": "tableRelativeDocument",
                    "Control": 27,
                    "props": {
                        "className": "p-col-12 p-md-10",
                        "selectionMode": "single",
                        "emptyMessage": "Không có dữ liệu",
                        "header": "Văn bản liên quan"
                    },
                    "Columns": [
                        {
                            "selectionMode": "multiple",
                            "style": {
                                "width": "5%"
                            }
                        },
                        {
                            "field": "DocLabel",
                            "header": "Số ký hiệu",
                            "style": {
                                "width": "15%"
                            }
                        },
                        {
                            "field": "DocumentStoreName",
                            "header": "Loại văn bản",
                            "style": {
                                "width": "15%"
                            }
                        },
                        {
                            "field": "DocDate",
                            "header": "Ngày văn bản",
                            "style": {
                                "width": "15%"
                            }
                        },
                        {
                            "field": "Brief",
                            "header": "Trích yếu",
                            "style": {
                                "width": "50%"
                            }
                        }
                    ]
                },
                {
                    "Name": "RowAddRelativeDocument",
                    "Control": 92,
                    "ControlClass": "button-right-align",
                    "Controls": [
                        {
                            "Name": "AddRelativeDocument",
                            "Control": 25,
                            "props": {
                                "className": "p-button-rounded p-button-text",
                                "icon": "pi pi-plus"
                            }
                        },
                        {
                            "Name": "CancelRelativeDocument",
                            "Control": 25,
                            "props": {
                                "className": "p-button-rounded p-button-text",
                                "icon": "pi pi-times"
                            }
                        }
                    ]
                }
            ]
        },
        {
            "Name": "Row014",
            "Control": 92,
            "Controls": [
                {
                    "Name": "table_empty4",
                    "Control": 93,
                    "ControlClass": "p-col-12 p-md-12"
                }
            ]
        },
        {
            "Name": "Tab3",
            "Control": 91,
            "Title": "Quá trình luân chuyển cho ý kiến",
            "Controls": [
                {
                    "Name": "Row16",
                    "Control": 92,
                    "Controls": [
                        {
                            "Name": "tbYKienLD",
                            "Control": 27,
                            "props": {
                                "className": "p-col-12 p-md-12",
                                "header": "Ý kiến lãnh đạo",
                                "emptyMessage": "Không có dữ liệu"
                            },
                            "Columns": [
                                {
                                    "field": "CreatedByName",
                                    "header": "Người chuyển",
                                    "style": {
                                        "width": "15%"
                                    }
                                },
                                {
                                    "field": "RoleName",
                                    "header": "Vai trò chuyển",
                                    "style": {
                                        "width": "15%"
                                    }
                                },
                                {
                                    "field": "Created",
                                    "header": "Ngày chuyển",
                                    "style": {
                                        "width": "15%"
                                    }
                                },
                                {
                                    "field": "Comment",
                                    "header": "Ý kiến",
                                    "style": {
                                        "width": "40%"
                                    }
                                },
                                {
                                    "field": "Recipients",
                                    "header": "Đơn vị nhận ",
                                    "style": {
                                        "width": "15%"
                                    }
                                }
                            ]
                        }
                    ]
                },
                {
                    "Name": "Row17P",
                    "Control": 92,
                    "Controls": [
                        {
                            "Name": "tbYKienPhongCN",
                            "Control": 27,
                            "props": {
                                "className": "p-col-12 p-md-12",
                                "header": "Ý kiến phòng chức năng",
                                "emptyMessage": "Không có dữ liệu"
                            },
                            "Columns": [
                                {
                                    "field": "CreatedByName",
                                    "header": "Người chuyển",
                                    "style": {
                                        "width": "15%"
                                    }
                                },
                                {
                                    "field": "RoleName",
                                    "header": "Vai trò chuyển",
                                    "style": {
                                        "width": "15%"
                                    }
                                },
                                {
                                    "field": "Created",
                                    "header": "Ngày chuyển",
                                    "style": {
                                        "width": "15%"
                                    }
                                },
                                {
                                    "field": "Comment",
                                    "header": "Ý kiến",
                                    "style": {
                                        "width": "40%"
                                    }
                                },
                                {
                                    "field": "Recipients",
                                    "header": "Đơn vị nhận ",
                                    "style": {
                                        "width": "15%"
                                    }
                                }
                            ]
                        }
                    ]
                }
            ]
        }
    ],
    "Buttons": [
        {
            "Name": "Update",
            "Control": 25,
            "props": {
                "label": "Ghi lại",
                "className": "p-mt-2"
            }
        },
        {
            "Name": "ChuyenXuLyDV",
            "Control": 25,
            "props": {
                "label": "Chuyển xử lý",
                "className": "p-mt-2"
            }
        },
        {
            "Name": "HoSoCongViec",
            "Control": 25,
            "props": {
                "label": "Hồ sơ công việc",
                "className": "p-mt-2"
            }
        },
        {
            "Name": "LichSu",
            "Control": 25,
            "props": {
                "label": "Lịch sử",
                "className": "p-mt-2"
            }
        },
        {
            "Name": "Dung",
            "Control": 25,
            "props": {
                "label": "Dừng",
                "className": "p-mt-2"
            }
        },
        {
            "Name": "Close",
            "Control": 25,
            "props": {
                "label": "Đóng",
                "className": "p-mt-2"
            }
        },
        {
            "Name": "ExtButton",
            "Control": 26,
            "props": {
                "label": "Chuyển chức năng"
            }
        }
    ]
}